<?xml version="1.0" encoding="utf-8"?><!-- Generator: Adobe Illustrator 18.1.1, SVG Export Plug-In . SVG Version: 6.00 Build 0)  -->
<svg version="1.1" id="Capa_1" xmlns="http://www.w3.org/2000/svg" xmlns:xlink="http://www.w3.org/1999/xlink" x="0px" y="0px"
	 viewBox="0 0 100 100" enable-background="new 0 0 100 100" xml:space="preserve">
<g>
	<g>
		<path fill="none" d="M50,27.1c-8.8,0-16.5,5-20.3,12.3h40.6C66.5,32.1,58.8,27.1,50,27.1z"/>
		<path fill="none" d="M50,72.9c8.8,0,16.5-5,20.3-12.3H29.7C33.5,67.9,41.2,72.9,50,72.9z"/>
		<path fill="none" d="M72.7,60.9c-0.1,0-0.2,0-0.3-0.1c-0.1,0-0.2-0.1-0.2-0.2h-1.1c-3.9,7.7-11.9,13-21.1,13s-17.2-5.3-21.1-13
			h-0.7c0.2,0.5,0.5,0.9,0.7,1.4c0.2,0.3,0.1,0.7-0.2,0.8c-0.1,0.1-0.2,0.1-0.3,0.1c-0.2,0-0.4-0.1-0.5-0.3
			c-0.3-0.5-0.6-1.1-0.9-1.7c0-0.1-0.1-0.2-0.1-0.3h-1.4C29.6,70.1,39,76.7,50,76.7s20.4-6.6,24.5-16.1h-1.4
			C73,60.8,72.9,60.9,72.7,60.9z M31.3,66.4c-0.1,0.1-0.3,0.1-0.4,0.1c-0.2,0-0.4-0.1-0.5-0.2c-0.4-0.5-0.8-1-1.2-1.5
			c-0.2-0.3-0.1-0.7,0.1-0.9c0.3-0.2,0.7-0.1,0.9,0.1c0.4,0.5,0.7,1,1.1,1.4C31.6,65.7,31.5,66.1,31.3,66.4z M34.4,69.4
			c-0.1,0.1-0.3,0.2-0.5,0.2c-0.1,0-0.3,0-0.4-0.1c-0.5-0.4-1-0.8-1.4-1.3c-0.2-0.2-0.2-0.6,0-0.9c0.2-0.2,0.6-0.2,0.9,0
			c0.4,0.4,0.9,0.8,1.3,1.2C34.6,68.7,34.6,69.1,34.4,69.4z M38,71.8c-0.1,0.2-0.3,0.3-0.5,0.3c-0.1,0-0.2,0-0.3-0.1
			c-0.5-0.3-1.1-0.7-1.6-1c-0.3-0.2-0.4-0.6-0.2-0.9c0.2-0.3,0.6-0.4,0.9-0.2c0.5,0.3,1,0.7,1.5,1C38.1,71.1,38.2,71.5,38,71.8z
			 M42,73.6c-0.1,0.3-0.3,0.4-0.6,0.4c-0.1,0-0.1,0-0.2,0c-0.6-0.2-1.2-0.5-1.8-0.7c-0.3-0.1-0.4-0.5-0.3-0.8
			c0.1-0.3,0.5-0.5,0.8-0.3c0.5,0.3,1.1,0.5,1.7,0.7C41.9,72.9,42.1,73.2,42,73.6z M45.6,75.1c0,0-0.1,0-0.1,0
			c-0.6-0.1-1.3-0.2-1.9-0.4c-0.3-0.1-0.5-0.4-0.4-0.8c0.1-0.3,0.4-0.5,0.8-0.4c0.6,0.2,1.2,0.3,1.8,0.4c0.3,0.1,0.6,0.4,0.5,0.7
			C46.1,74.9,45.9,75.1,45.6,75.1z M49.9,75.5C49.9,75.5,49.9,75.5,49.9,75.5c-0.6,0-1.3,0-1.9-0.1c-0.3,0-0.6-0.3-0.6-0.7
			c0-0.3,0.3-0.6,0.7-0.6c0.6,0,1.2,0.1,1.8,0.1c0.3,0,0.6,0.3,0.6,0.6C50.5,75.2,50.3,75.5,49.9,75.5z M54.3,75.1
			c-0.6,0.1-1.3,0.2-1.9,0.3c0,0,0,0-0.1,0c-0.3,0-0.6-0.2-0.6-0.6c0-0.3,0.2-0.6,0.6-0.7c0.6-0.1,1.2-0.1,1.8-0.2
			c0.3-0.1,0.7,0.2,0.7,0.5C54.9,74.7,54.7,75.1,54.3,75.1z M58.7,74c-0.6,0.2-1.2,0.4-1.8,0.6c-0.1,0-0.1,0-0.2,0
			c-0.3,0-0.5-0.2-0.6-0.5c-0.1-0.3,0.1-0.7,0.4-0.8c0.6-0.2,1.2-0.3,1.7-0.6c0.3-0.1,0.7,0.1,0.8,0.4C59.1,73.5,59,73.9,58.7,74z
			 M62.7,72.1c-0.6,0.3-1.1,0.6-1.7,0.9c-0.1,0-0.2,0.1-0.3,0.1c-0.2,0-0.5-0.1-0.6-0.4c-0.1-0.3,0-0.7,0.3-0.8
			c0.5-0.3,1.1-0.5,1.6-0.8c0.3-0.2,0.7-0.1,0.8,0.2C63.1,71.6,63,71.9,62.7,72.1z M66.3,69.6c-0.5,0.4-1,0.8-1.5,1.2
			c-0.1,0.1-0.2,0.1-0.4,0.1c-0.2,0-0.4-0.1-0.5-0.3c-0.2-0.3-0.1-0.7,0.1-0.9c0.5-0.3,1-0.7,1.4-1.1c0.3-0.2,0.7-0.2,0.9,0.1
			C66.6,69,66.6,69.3,66.3,69.6z M69.5,66.4c-0.4,0.5-0.8,1-1.3,1.4C68.1,68,67.9,68,67.8,68c-0.2,0-0.3-0.1-0.4-0.2
			c-0.2-0.2-0.2-0.6,0-0.9c0.4-0.4,0.8-0.9,1.2-1.3c0.2-0.3,0.6-0.3,0.9-0.1C69.7,65.8,69.7,66.2,69.5,66.4z M72.1,62.8
			c-0.3,0.5-0.7,1.1-1,1.6c-0.1,0.2-0.3,0.3-0.5,0.3c-0.1,0-0.2,0-0.4-0.1c-0.3-0.2-0.4-0.6-0.2-0.9c0.3-0.5,0.7-1,1-1.5
			c0.2-0.3,0.6-0.4,0.9-0.2C72.1,62.1,72.2,62.5,72.1,62.8z"/>
		<path fill="none" d="M50,23.3c-11,0-20.4,6.6-24.5,16.1h1.3c0,0,0,0,0-0.1c0.1-0.3,0.5-0.4,0.8-0.3c0.2,0.1,0.3,0.2,0.3,0.4h0.9
			c3.9-7.7,11.9-13,21.1-13s17.2,5.3,21.1,13h0.7c-0.2-0.4-0.4-0.8-0.6-1.2c-0.2-0.3-0.1-0.7,0.2-0.8c0.3-0.2,0.7-0.1,0.8,0.2
			c0.3,0.6,0.6,1.1,0.9,1.7c0,0,0,0.1,0,0.1h1.4C70.4,29.9,61,23.3,50,23.3z M30.1,36.2c-0.3,0.5-0.7,1-1,1.5
			C29,37.9,28.8,38,28.6,38c-0.1,0-0.2,0-0.3-0.1c-0.3-0.2-0.4-0.6-0.2-0.9c0.3-0.5,0.7-1.1,1-1.6c0.2-0.3,0.6-0.4,0.9-0.2
			C30.2,35.5,30.3,35.9,30.1,36.2z M32.8,32.9c-0.4,0.4-0.8,0.9-1.2,1.3c-0.1,0.1-0.3,0.2-0.5,0.2c-0.1,0-0.3,0-0.4-0.1
			c-0.3-0.2-0.3-0.6-0.1-0.9c0.4-0.5,0.8-1,1.3-1.4c0.2-0.2,0.6-0.2,0.9,0C33,32.3,33,32.7,32.8,32.9z M36,30.2
			c-0.5,0.3-1,0.7-1.4,1.1c-0.1,0.1-0.3,0.1-0.4,0.1c-0.2,0-0.4-0.1-0.5-0.2c-0.2-0.3-0.2-0.7,0.1-0.9c0.5-0.4,1-0.8,1.5-1.2
			c0.3-0.2,0.7-0.1,0.9,0.1C36.4,29.6,36.3,30,36,30.2z M39.7,28c-0.5,0.3-1.1,0.5-1.6,0.8C38,28.9,37.9,29,37.8,29
			c-0.2,0-0.4-0.1-0.5-0.3c-0.2-0.3-0.1-0.7,0.2-0.8c0.5-0.3,1.1-0.6,1.7-0.9c0.3-0.1,0.7,0,0.8,0.3C40.1,27.5,40,27.9,39.7,28z
			 M43.7,26.6c-0.6,0.2-1.2,0.3-1.7,0.5c-0.1,0-0.1,0-0.2,0c-0.3,0-0.5-0.2-0.6-0.4c-0.1-0.3,0.1-0.7,0.4-0.8
			c0.6-0.2,1.2-0.4,1.8-0.6c0.3-0.1,0.7,0.1,0.8,0.4C44.2,26.2,44,26.5,43.7,26.6z M47.8,25.8c-0.6,0.1-1.2,0.1-1.8,0.2
			c0,0-0.1,0-0.1,0c-0.3,0-0.6-0.2-0.6-0.5c-0.1-0.3,0.2-0.7,0.5-0.7c0.6-0.1,1.3-0.2,1.9-0.2c0.3,0,0.6,0.2,0.7,0.6
			C48.4,25.5,48.2,25.8,47.8,25.8z M52.1,25.8C52.1,25.8,52.1,25.8,52.1,25.8c-0.7-0.1-1.3-0.1-1.9-0.1c-0.3,0-0.6-0.3-0.6-0.6
			c0-0.3,0.3-0.6,0.6-0.6c0.6,0,1.3,0,1.9,0.1c0.3,0,0.6,0.3,0.6,0.7C52.7,25.6,52.5,25.8,52.1,25.8z M57,26.1
			c-0.1,0.3-0.3,0.5-0.6,0.5c-0.1,0-0.1,0-0.2,0c-0.6-0.2-1.2-0.3-1.8-0.4c-0.3-0.1-0.6-0.4-0.5-0.7c0.1-0.3,0.4-0.6,0.7-0.5
			c0.6,0.1,1.3,0.3,1.9,0.4C56.9,25.4,57.1,25.8,57,26.1z M61.1,27.7c-0.1,0.2-0.3,0.4-0.6,0.4c-0.1,0-0.2,0-0.3-0.1
			c-0.5-0.3-1.1-0.5-1.7-0.7c-0.3-0.1-0.5-0.5-0.4-0.8c0.1-0.3,0.5-0.5,0.8-0.4c0.6,0.2,1.2,0.5,1.8,0.7
			C61.1,27,61.2,27.4,61.1,27.7z M64.8,30c-0.1,0.2-0.3,0.3-0.5,0.3c-0.1,0-0.2,0-0.4-0.1c-0.5-0.3-1-0.7-1.5-1
			c-0.3-0.2-0.4-0.6-0.2-0.9c0.2-0.3,0.6-0.4,0.9-0.2c0.5,0.3,1.1,0.7,1.6,1C64.9,29.3,65,29.7,64.8,30z M68,32.9
			C67.9,33,67.7,33,67.6,33c-0.2,0-0.3-0.1-0.4-0.2c-0.4-0.4-0.9-0.8-1.3-1.2c-0.3-0.2-0.3-0.6-0.1-0.9c0.2-0.3,0.6-0.3,0.9-0.1
			c0.5,0.4,1,0.9,1.4,1.3C68.3,32.2,68.3,32.6,68,32.9z M69.7,33.9c0.4,0.5,0.8,1,1.2,1.5c0.2,0.3,0.1,0.7-0.2,0.9
			c-0.1,0.1-0.2,0.1-0.4,0.1c-0.2,0-0.4-0.1-0.5-0.3c-0.3-0.5-0.7-1-1.1-1.4c-0.2-0.3-0.2-0.7,0.1-0.9
			C69.1,33.6,69.5,33.6,69.7,33.9z"/>
		<path fill="#70431B" d="M50,72.9c-8.8,0-16.5-5-20.3-12.3h-0.8c3.9,7.7,11.9,13,21.1,13s17.2-5.3,21.1-13h-0.8
			C66.5,67.9,58.8,72.9,50,72.9z"/>
		<path fill="#70431B" d="M50,27.1c8.8,0,16.5,5,20.3,12.3h0.8c-3.9-7.7-11.9-13-21.1-13s-17.2,5.3-21.1,13h0.8
			C33.5,32.1,41.2,27.1,50,27.1z"/>
		<path fill="#70431B" d="M49.9,74.3c-0.6,0-1.2,0-1.8-0.1c-0.4,0-0.6,0.2-0.7,0.6c0,0.3,0.2,0.6,0.6,0.7c0.6,0,1.3,0.1,1.9,0.1
			c0,0,0,0,0,0c0.3,0,0.6-0.3,0.6-0.6C50.5,74.5,50.3,74.3,49.9,74.3z"/>
		<path fill="#70431B" d="M58.2,72.8c-0.6,0.2-1.2,0.4-1.7,0.6c-0.3,0.1-0.5,0.4-0.4,0.8c0.1,0.3,0.3,0.5,0.6,0.5c0.1,0,0.1,0,0.2,0
			c0.6-0.2,1.2-0.4,1.8-0.6c0.3-0.1,0.5-0.5,0.4-0.8C58.9,72.9,58.6,72.7,58.2,72.8z"/>
		<path fill="#70431B" d="M62.1,71c-0.5,0.3-1.1,0.6-1.6,0.8c-0.3,0.1-0.4,0.5-0.3,0.8c0.1,0.2,0.3,0.4,0.6,0.4c0.1,0,0.2,0,0.3-0.1
			c0.6-0.3,1.1-0.6,1.7-0.9c0.3-0.2,0.4-0.6,0.2-0.8C62.8,71,62.4,70.9,62.1,71z"/>
		<path fill="#70431B" d="M45.7,73.9c-0.6-0.1-1.2-0.2-1.8-0.4c-0.3-0.1-0.7,0.1-0.8,0.4c-0.1,0.3,0.1,0.7,0.4,0.8
			c0.6,0.2,1.2,0.3,1.9,0.4c0,0,0.1,0,0.1,0c0.3,0,0.6-0.2,0.6-0.5C46.3,74.3,46,73.9,45.7,73.9z"/>
		<path fill="#70431B" d="M71.8,61.9c-0.3-0.2-0.7-0.1-0.9,0.2c-0.3,0.5-0.6,1-1,1.5c-0.2,0.3-0.1,0.7,0.2,0.9
			c0.1,0.1,0.2,0.1,0.4,0.1c0.2,0,0.4-0.1,0.5-0.3c0.4-0.5,0.7-1.1,1-1.6C72.2,62.5,72.1,62.1,71.8,61.9z"/>
		<path fill="#70431B" d="M68.6,65.6c-0.4,0.5-0.8,0.9-1.2,1.3c-0.2,0.2-0.2,0.6,0,0.9c0.1,0.1,0.3,0.2,0.4,0.2
			c0.2,0,0.3-0.1,0.4-0.2c0.4-0.5,0.9-0.9,1.3-1.4c0.2-0.3,0.2-0.7-0.1-0.9C69.2,65.3,68.8,65.4,68.6,65.6z"/>
		<path fill="#70431B" d="M65.5,68.6c-0.5,0.4-0.9,0.8-1.4,1.1c-0.3,0.2-0.3,0.6-0.1,0.9c0.1,0.2,0.3,0.3,0.5,0.3
			c0.1,0,0.3,0,0.4-0.1c0.5-0.4,1-0.8,1.5-1.2c0.3-0.2,0.3-0.6,0.1-0.9C66.2,68.4,65.8,68.4,65.5,68.6z"/>
		<path fill="#70431B" d="M54.1,73.9c-0.6,0.1-1.2,0.2-1.8,0.2c-0.3,0-0.6,0.3-0.6,0.7c0,0.3,0.3,0.6,0.6,0.6c0,0,0,0,0.1,0
			c0.6-0.1,1.3-0.1,1.9-0.3c0.3-0.1,0.6-0.4,0.5-0.7C54.8,74.1,54.5,73.8,54.1,73.9z"/>
		<path fill="#70431B" d="M73.1,39.2c-0.3-0.6-0.6-1.1-0.9-1.7c-0.2-0.3-0.5-0.4-0.8-0.2c-0.3,0.2-0.4,0.5-0.2,0.8
			c0.2,0.4,0.4,0.8,0.6,1.2h1.4C73.1,39.3,73.1,39.3,73.1,39.2z"/>
		<path fill="#70431B" d="M72.4,60.8c0.1,0,0.2,0.1,0.3,0.1c0.2,0,0.4-0.1,0.5-0.3h-1C72.2,60.7,72.3,60.8,72.4,60.8z"/>
		<path fill="#70431B" d="M27.7,39c-0.3-0.1-0.7,0-0.8,0.3c0,0,0,0,0,0.1H28C27.9,39.2,27.8,39.1,27.7,39z"/>
		<path fill="#70431B" d="M27,60.9c0.3,0.6,0.6,1.1,0.9,1.7c0.1,0.2,0.3,0.3,0.5,0.3c0.1,0,0.2,0,0.3-0.1c0.3-0.2,0.4-0.5,0.2-0.8
			c-0.3-0.4-0.5-0.9-0.7-1.4h-1.3C26.9,60.7,26.9,60.8,27,60.9z"/>
		<path fill="#70431B" d="M33,67.3c-0.2-0.2-0.6-0.2-0.9,0c-0.2,0.2-0.2,0.6,0,0.9c0.5,0.4,0.9,0.9,1.4,1.3c0.1,0.1,0.3,0.1,0.4,0.1
			c0.2,0,0.4-0.1,0.5-0.2c0.2-0.3,0.2-0.7-0.1-0.9C33.9,68.1,33.4,67.7,33,67.3z"/>
		<path fill="#70431B" d="M30.2,64c-0.2-0.3-0.6-0.3-0.9-0.1c-0.3,0.2-0.3,0.6-0.1,0.9c0.4,0.5,0.8,1,1.2,1.5
			c0.1,0.1,0.3,0.2,0.5,0.2c0.1,0,0.3,0,0.4-0.1c0.3-0.2,0.3-0.6,0.1-0.9C30.9,65,30.6,64.5,30.2,64z"/>
		<path fill="#70431B" d="M37.8,70.9c-0.5-0.3-1-0.6-1.5-1c-0.3-0.2-0.7-0.1-0.9,0.2c-0.2,0.3-0.1,0.7,0.2,0.9
			c0.5,0.4,1.1,0.7,1.6,1c0.1,0.1,0.2,0.1,0.3,0.1c0.2,0,0.4-0.1,0.5-0.3C38.2,71.5,38.1,71.1,37.8,70.9z"/>
		<path fill="#70431B" d="M41.6,72.8c-0.6-0.2-1.1-0.4-1.7-0.7c-0.3-0.1-0.7,0-0.8,0.3c-0.1,0.3,0,0.7,0.3,0.8
			c0.6,0.3,1.2,0.5,1.8,0.7c0.1,0,0.1,0,0.2,0c0.3,0,0.5-0.2,0.6-0.4C42.1,73.2,41.9,72.9,41.6,72.8z"/>
		<path fill="#70431B" d="M68.8,34.7c0.4,0.5,0.8,1,1.1,1.4c0.1,0.2,0.3,0.3,0.5,0.3c0.1,0,0.2,0,0.4-0.1c0.3-0.2,0.3-0.6,0.2-0.9
			c-0.4-0.5-0.8-1-1.2-1.5c-0.2-0.3-0.6-0.3-0.9-0.1C68.6,34,68.6,34.4,68.8,34.7z"/>
		<path fill="#70431B" d="M63,28.1c-0.3-0.2-0.7-0.1-0.9,0.2c-0.2,0.3-0.1,0.7,0.2,0.9c0.5,0.3,1,0.6,1.5,1c0.1,0.1,0.2,0.1,0.4,0.1
			c0.2,0,0.4-0.1,0.5-0.3c0.2-0.3,0.1-0.7-0.2-0.9C64.1,28.7,63.6,28.4,63,28.1z"/>
		<path fill="#70431B" d="M47.7,24.6c-0.6,0.1-1.3,0.1-1.9,0.2c-0.3,0.1-0.6,0.4-0.5,0.7c0,0.3,0.3,0.5,0.6,0.5c0,0,0.1,0,0.1,0
			c0.6-0.1,1.2-0.2,1.8-0.2c0.3,0,0.6-0.3,0.6-0.7C48.4,24.8,48.1,24.6,47.7,24.6z"/>
		<path fill="#70431B" d="M43.3,25.4c-0.6,0.2-1.2,0.4-1.8,0.6c-0.3,0.1-0.5,0.5-0.4,0.8c0.1,0.3,0.3,0.4,0.6,0.4c0.1,0,0.1,0,0.2,0
			c0.6-0.2,1.2-0.4,1.7-0.5c0.3-0.1,0.5-0.4,0.4-0.8C44,25.5,43.7,25.3,43.3,25.4z"/>
		<path fill="#70431B" d="M66.6,30.7c-0.3-0.2-0.7-0.2-0.9,0.1c-0.2,0.3-0.2,0.7,0.1,0.9c0.5,0.4,0.9,0.8,1.3,1.2
			c0.1,0.1,0.3,0.2,0.4,0.2c0.2,0,0.3-0.1,0.4-0.2c0.2-0.2,0.2-0.6,0-0.9C67.6,31.5,67.1,31.1,66.6,30.7z"/>
		<path fill="#70431B" d="M56.6,25.4c-0.6-0.2-1.2-0.3-1.9-0.4c-0.3-0.1-0.7,0.2-0.7,0.5c-0.1,0.3,0.2,0.7,0.5,0.7
			c0.6,0.1,1.2,0.2,1.8,0.4c0.1,0,0.1,0,0.2,0c0.3,0,0.5-0.2,0.6-0.5C57.1,25.8,56.9,25.4,56.6,25.4z"/>
		<path fill="#70431B" d="M39.2,26.9c-0.6,0.3-1.1,0.6-1.7,0.9c-0.3,0.2-0.4,0.5-0.2,0.8c0.1,0.2,0.3,0.3,0.5,0.3
			c0.1,0,0.2,0,0.3-0.1c0.5-0.3,1.1-0.6,1.6-0.8c0.3-0.1,0.4-0.5,0.3-0.8C39.8,26.9,39.5,26.8,39.2,26.9z"/>
		<path fill="#70431B" d="M60.8,26.9c-0.6-0.3-1.2-0.5-1.8-0.7c-0.3-0.1-0.7,0-0.8,0.4c-0.1,0.3,0,0.7,0.4,0.8
			c0.6,0.2,1.1,0.5,1.7,0.7c0.1,0,0.2,0.1,0.3,0.1c0.2,0,0.5-0.1,0.6-0.4C61.2,27.4,61.1,27,60.8,26.9z"/>
		<path fill="#70431B" d="M52.2,24.6c-0.6-0.1-1.3-0.1-1.9-0.1c-0.4,0-0.6,0.3-0.6,0.6c0,0.3,0.3,0.6,0.6,0.6c0.6,0,1.2,0,1.8,0.1
			c0,0,0,0,0.1,0c0.3,0,0.6-0.2,0.6-0.6C52.8,24.9,52.5,24.6,52.2,24.6z"/>
		<path fill="#70431B" d="M29.1,35.5c-0.4,0.5-0.7,1.1-1,1.6c-0.2,0.3-0.1,0.7,0.2,0.9c0.1,0.1,0.2,0.1,0.3,0.1
			c0.2,0,0.4-0.1,0.5-0.3c0.3-0.5,0.6-1,1-1.5c0.2-0.3,0.1-0.7-0.2-0.9C29.6,35.1,29.3,35.2,29.1,35.5z"/>
		<path fill="#70431B" d="M31.9,32c-0.4,0.5-0.9,0.9-1.3,1.4c-0.2,0.3-0.2,0.7,0.1,0.9c0.1,0.1,0.3,0.1,0.4,0.1
			c0.2,0,0.4-0.1,0.5-0.2c0.4-0.5,0.8-0.9,1.2-1.3c0.2-0.2,0.2-0.6,0-0.9C32.5,31.8,32.2,31.8,31.9,32z"/>
		<path fill="#70431B" d="M35.3,29.2c-0.5,0.4-1,0.8-1.5,1.2c-0.3,0.2-0.3,0.6-0.1,0.9c0.1,0.1,0.3,0.2,0.5,0.2c0.1,0,0.3,0,0.4-0.1
			c0.5-0.4,1-0.8,1.4-1.1c0.3-0.2,0.3-0.6,0.1-0.9C36,29,35.6,29,35.3,29.2z"/>
		<path fill="#70431B" d="M50,23.3c11,0,20.4,6.6,24.5,16.1h2.2C72.5,28.7,62.1,21.2,50,21.2s-22.5,7.5-26.8,18.2h2.2
			C29.6,29.9,39,23.3,50,23.3z"/>
		<path fill="#70431B" d="M50,76.7c-11,0-20.4-6.6-24.5-16.1h-2.2C27.5,71.3,37.9,78.8,50,78.8s22.5-7.5,26.8-18.2h-2.2
			C70.4,70.1,61,76.7,50,76.7z"/>
		<path fill="#70431B" d="M27.3,60.1c-0.2,0.1-0.3,0.3-0.3,0.5h1.3c0-0.1-0.1-0.2-0.1-0.2C27.9,60.1,27.6,59.9,27.3,60.1z"/>
		<path fill="#70431B" d="M72.6,40.1c0.1,0,0.2,0,0.3-0.1c0.3-0.1,0.4-0.4,0.3-0.7h-1.4c0.1,0.1,0.1,0.3,0.2,0.4
			C72.1,40,72.3,40.1,72.6,40.1z"/>
	</g>
	<g>
		<g>
			<path fill="#231F20" d="M86.5,44.2l1.4-2.8l1.7,1.4l-2.5,1.9L86.5,44.2z"/>
			<g>
				<polygon fill="#231F20" points="90.2,42.8 88.4,41.4 88.3,41.5 89.9,42.8 87.7,44.4 87.9,44.6 				"/>
			</g>
		</g>
		<g>
			<path fill="#231F20" d="M6.6,48.2c0-0.1,0-0.1,0-0.1c-0.1,0-0.1-0.1-0.2-0.2c-0.1-0.1-0.2-0.2-0.2-0.2c-0.4-0.2-0.8-0.3-1.2-0.4
				c-0.5,0-0.9,0-1.3,0.2c-0.5,0.3-1,0.7-1.3,1.2c-0.1,0.2-0.2,0.5-0.3,0.8c-0.1,0.3-0.1,0.6-0.1,0.9c0,0.4,0.1,0.7,0.1,0.9
				c0.2,0.6,0.7,1.1,1.3,1.4c0.5,0.3,1.1,0.4,1.8,0.4c0.8-0.1,1.4-0.5,1.7-1c0.1-0.1,0.1-0.2,0.1-0.4c0-0.3,0-0.5,0-0.4
				c0.2,0.1,0.5,0.3,1,0.6c0.4,0.2,0.7,0.4,0.9,0.6c0,0.2-0.3,0.6-1,1.2c-0.3,0.3-0.7,0.5-1.2,0.8c-0.6,0.3-1.3,0.4-1.9,0.4
				c-0.5,0-1-0.1-1.4-0.3c-0.8-0.3-1.4-0.7-2-1.2c-0.4-0.4-0.7-0.9-1-1.4C0.1,51.4,0,51,0,50.5c0-0.9,0.2-1.7,0.6-2.5
				c0.4-0.7,0.9-1.2,1.6-1.7c0.9-0.6,1.7-0.8,2.4-0.8c0.2,0,0.4,0,0.9,0.1C6,45.7,6.5,45.9,7,46.3c0.4,0.3,0.8,0.6,1.1,1
				c0.2,0.3,0.4,0.5,0.3,0.5c0,0-0.2,0.1-0.5,0.3c-0.1,0-0.2,0.1-0.4,0.3c-0.2,0.1-0.3,0.2-0.5,0.3c0,0-0.1,0-0.1,0.1
				c-0.1,0-0.1,0.1-0.1,0.1c-0.1,0.1-0.2,0.1-0.2,0.1c-0.1,0-0.1-0.1,0-0.2c0-0.1,0.1-0.2,0.1-0.3C6.7,48.3,6.6,48.3,6.6,48.2z
				 M6.1,48C6.1,48,6,48,6.1,48C6,47.9,6,47.9,6,47.9c-0.3-0.2-0.6-0.3-0.9-0.3c-0.7,0-1.3,0.1-1.9,0.5c-0.3,0.3-0.6,0.6-0.7,0.9
				c0,0-0.1,0.2-0.2,0.7c-0.1,0.3-0.1,0.6-0.1,0.9c0,0.3,0.1,0.6,0.2,0.7c0.1,0.2,0.2,0.4,0.2,0.3c-0.2,0-0.4-0.2-0.5-0.6
				c0,0,0-0.1,0-0.1c0-0.1,0-0.2,0-0.3c0-0.3,0-0.6,0-0.8c0.1-0.8,0.5-1.5,1.2-2c0.7-0.3,1.3-0.4,1.8-0.4c0.1,0,0.3,0,0.4,0.1
				c0.2,0.1,0.4,0.1,0.4,0.1c0,0,0.1,0.1,0.3,0.2C6.2,47.9,6.2,48,6.2,48C6.2,48.1,6.1,48.1,6.1,48z M6.2,54.7H6.1
				C5.4,54.9,4.7,55,4,54.9c-0.3,0-0.4-0.1-0.5-0.2c0,0,0.2,0,0.4,0c0.5,0.1,0.9,0.1,1.2,0.1c1.1,0,2.1-0.5,3.1-1.3
				c0.2-0.1,0.3-0.3,0.5-0.6c0.1-0.1,0.2-0.2,0.2-0.2c0,0,0,0,0,0c0,0,0,0,0,0c0,0,0.1,0,0.1,0.1C8.5,53.4,7.6,54.1,6.2,54.7z
				 M8.2,48.3c-0.2,0.1-0.5,0.3-0.8,0.5c0,0-0.1,0-0.1,0.1c-0.1,0-0.1,0.1-0.1,0.1c-0.1,0-0.2,0.1-0.2,0c0,0,0,0,0,0
				c0.1-0.1,0.2-0.1,0.4-0.2c0.2-0.1,0.4-0.2,0.4-0.2c0.3-0.1,0.5-0.3,0.8-0.5c0.1,0,0.1,0,0.1,0c0,0,0,0,0,0.1
				C8.5,48.1,8.4,48.2,8.2,48.3z"/>
			<path fill="#231F20" d="M16.1,47.4c0,0-0.1,0-0.2,0c-0.1,0-0.2,0-0.3,0c0-0.1-0.1-0.2-0.2-0.4c-0.5,0-1.8,0-3.8,0
				c0,0.3,0,0.7,0,1.2c0,0.6,0,1,0,1.3c0.3,0.1,0.6,0.1,0.8,0c0.3-0.1,0.4-0.2,0.4-0.5c0,0,0.1,0,0.2,0c0.1,0,0.2,0,0.2,0
				c0,0.2,0,0.5-0.1,0.9c0,0.5,0,0.8,0,0.9c-0.1,0.1-0.3,0.1-0.4,0c0,0-0.1-0.1-0.2-0.2c-0.1-0.1-0.1-0.2-0.1-0.2
				c-0.1,0-0.2,0-0.5,0c-0.2,0-0.3,0-0.4,0c0,0.3,0,1.1-0.1,2.4c0.4,0.1,1.4,0.1,2.9,0.1l0.8,0c0.3,0,0.4-0.2,0.5-0.4
				c0.3,0,0.5,0.1,0.5,0.1c0,0.1-0.2,0.4-0.4,0.9c-0.1,0.4-0.2,0.7-0.3,0.9c-0.8,0.1-1.8,0.1-3,0c-0.4,0-1,0-1.7,0
				c-0.9,0-1.4,0-1.6,0c0-0.1,0.1-0.2,0.2-0.4c0.2-0.4,0.4-0.8,0.4-1.2c0.1-2.2,0.1-4.1,0.1-5.9c0-0.3-0.1-0.6-0.1-0.7
				c0-0.1-0.1-0.3-0.3-0.5c-0.1-0.2-0.2-0.3-0.3-0.4c2.7,0,4.7,0,6,0c0.2,0,0.3,0,0.4,0.1c0.1,0.1,0.2,0.3,0.3,0.9
				c0.2,0.5,0.2,0.8,0.3,1C16.1,47.4,16.1,47.4,16.1,47.4z M16.5,53c0.1,0.1,0.1,0.1,0,0.2c0,0,0,0.1-0.1,0.1c0,0.1,0,0.1-0.1,0.1
				c-0.3,0.8-0.5,1.3-0.6,1.5c0,0-1.8,0-5.5,0c0,0-0.1,0-0.1,0c-0.1,0-0.1,0-0.1,0c-0.1,0-0.2,0-0.2-0.1c0.2-0.1,0.6-0.1,1.1-0.1
				l1.2,0.1c0.4,0,1,0,1.7,0c0.8,0,1.4,0,1.8,0c0.1-0.2,0.3-0.5,0.4-0.9C16.2,53.4,16.4,53.1,16.5,53L16.5,53z M12.3,51.1
				c0,0,0,0-0.1,0c-0.1,0-0.1,0-0.2,0c0,0.1,0,0.2,0,0.3c0,0.2,0,0.3,0,0.3c0,0,0,0.3,0,0.7c0,0.3,0,0.5-0.1,0.5c0-0.2-0.1-0.5,0-1
				c0-0.5,0-0.9,0-1.1c0.1,0,0.2,0,0.4,0c0.1,0,0.2,0,0.2,0.1C12.4,51,12.3,51.1,12.3,51.1z M15.3,47.2c0,0.2,0.1,0.3,0.4,0.4
				c0.4,0.1,0.6,0.1,0.6,0.1c-0.1,0.1-0.2,0.1-0.4,0.1c-0.3,0-0.5,0-0.5,0c0,0,0-0.1-0.1-0.2c0-0.1-0.1-0.1-0.1-0.2
				c-1.5,0-2.5,0-3.2,0c0,0.3-0.1,0.8-0.1,1.4c0,0,0,0.1,0,0.2c0,0.1,0,0.1,0,0.2c0,0.1,0,0.2-0.1,0.3c-0.1-0.3-0.1-0.6-0.1-1.1
				c0-0.7,0-1,0-1.1C12.7,47.2,13.9,47.2,15.3,47.2z M13.5,49.2c0,0.5,0,1.3-0.1,2.2c-0.1,0-0.2,0-0.4,0c-0.1,0-0.2,0-0.2,0
				c0-0.1,0.1-0.1,0.2-0.1c0.2,0,0.2,0,0.3,0c0-0.2,0.1-0.5,0.1-1C13.4,49.8,13.4,49.4,13.5,49.2L13.5,49.2z"/>
			<path fill="#231F20" d="M23,51.7c0.2,0.8,0.5,1.4,0.7,1.6c0.3,0.4,0.7,0.6,1.2,0.6c0,0.3,0,0.6,0,0.7c-0.6,0.1-1,0-1.4-0.1
				c-0.6-0.2-1.2-0.7-1.7-1.5c-0.1-0.2-0.3-0.5-0.6-1.1c-0.2-0.4-0.4-0.8-0.6-1c-0.5-0.2-0.9-0.3-1.3-0.3c0,2.1,0.1,3.2,0.1,3.2
				c0,0.1,0.1,0.2,0.2,0.3c0.1,0.1,0.1,0.2,0.2,0.3c-0.4,0-1.4,0-2.9,0c0-0.1,0-0.1,0.1-0.2c0.1-0.1,0.2-0.2,0.2-0.2
				c0,0,0-0.1,0.1-0.2c0-0.1,0.1-0.1,0.1-0.2c0.1-0.4,0.2-1.4,0.1-3c0-0.9,0-1.7,0-2.5c0,0,0-0.3,0-0.6c0-0.3,0-0.5,0-0.7
				c0-0.5-0.1-0.9-0.2-1.1c0,0-0.1-0.1-0.4-0.4c0.1-0.1,0.2-0.1,0.3-0.1c0,0,0.1,0,0.4,0c0.3,0,1,0,2.2,0c0.9,0,1.6,0,2.2,0
				c0.6,0,1.2,0.2,1.7,0.5c0.4,0.3,0.7,0.5,0.8,0.7c0.1,0.2,0.2,0.6,0.1,1.1c0,0.5-0.1,0.8-0.3,1.1c-0.2,0.3-0.5,0.6-1,0.8
				c-0.4,0.2-0.9,0.4-1.4,0.4C22.4,50.5,22.7,51,23,51.7z M19.7,51C19.7,51,19.7,51,19.7,51c-0.1,1.7,0,2.9,0.4,3.6
				c0.1,0.2,0.2,0.4,0.2,0.3c0,0.1-0.3,0.2-0.8,0.2c-0.1,0-0.3,0-0.6,0c-0.2,0-0.4,0-0.4,0c-0.8,0-1.2,0-1.2-0.1
				c0-0.1,0.1-0.1,0.2-0.1c0,0,0.1,0,0.1,0c0.1,0,0.1,0,0.1,0c0.3,0,0.7,0,1.1,0c0.5,0,0.9,0,1.1,0c-0.1-0.3-0.2-0.5-0.3-0.6
				c-0.2-0.4-0.2-0.9-0.2-1.6c0-0.2,0-0.5,0-0.9c0-0.4,0-0.6,0-0.8C19.6,51,19.6,51,19.7,51C19.6,51,19.6,51,19.7,51
				C19.6,51,19.6,51,19.7,51z M22.8,47.5c-0.2-0.2-0.4-0.3-0.6-0.3c-0.3-0.1-0.8-0.1-1.4-0.1c-0.7,0-1.2,0-1.4,0c0,0.2-0.1,0.9,0,2
				c0.2,0,0.5,0,1.1,0c0.5,0,0.9,0,1.1-0.1c0.9-0.1,1.3-0.4,1.4-1C23.1,47.9,23,47.7,22.8,47.5z M22.5,47.6
				c-0.2-0.1-0.2-0.1-0.2-0.1c-0.3-0.1-0.7-0.1-1.2-0.1c-0.1,0-0.4,0-0.6,0c-0.3,0-0.5,0-0.6,0c-0.1,1-0.1,1.5-0.1,1.5
				c-0.1,0-0.1-0.1-0.1-0.1c0,0,0-0.1,0-0.1c0,0,0-0.1,0-0.1c0-0.4,0-0.8,0-1.3c0.8-0.1,1.4-0.1,1.6-0.1c0.7,0,1.2,0.2,1.4,0.4
				C22.6,47.7,22.6,47.7,22.5,47.6z M25.1,53.8C25.1,53.8,25,53.8,25.1,53.8c-0.7-0.1-1.1-0.4-1.5-1c0,0-0.2-0.6-0.7-1.8
				c0,0-0.1-0.1-0.2-0.2c-0.1-0.1-0.1-0.2-0.1-0.2c0.7-0.1,1.2-0.3,1.6-0.7c0.4-0.4,0.7-0.9,0.7-1.5c0-0.5,0-0.7,0-0.7
				c0.1,0.1,0.2,0.3,0.1,0.7c0,0.6-0.3,1.1-0.8,1.6c-0.4,0.4-1,0.7-1.6,0.7c0,0.1,0.1,0.4,0.3,1c0.1,0.4,0.3,0.7,0.4,1
				c0.4,0.7,0.9,1.1,1.5,1.2C25.1,53.6,25.1,53.7,25.1,53.8C25.1,53.7,25.1,53.7,25.1,53.8C25.1,53.7,25.1,53.7,25.1,53.8z
				 M25.2,54.2c0,0.3,0,0.6,0,0.6c-0.1,0-0.1,0.1-0.1,0.1c0,0,0,0,0,0.1c0,0,0,0.1,0,0.1c-0.8,0-1.3-0.1-1.4-0.1c0.2,0,0.4,0,0.6,0
				c0.3,0,0.6,0,0.7,0c0-0.1,0-0.2,0.1-0.5c0-0.3,0-0.6,0.1-0.7C25.2,53.7,25.2,53.9,25.2,54.2z"/>
			<path fill="#231F20" d="M31.8,51.7c0.2,0.8,0.5,1.4,0.7,1.6c0.3,0.4,0.7,0.6,1.2,0.6c0,0.3,0,0.6,0,0.7c-0.6,0.1-1,0-1.4-0.1
				c-0.6-0.2-1.2-0.7-1.7-1.5c-0.1-0.2-0.3-0.5-0.6-1.1c-0.2-0.4-0.4-0.8-0.6-1c-0.5-0.2-0.9-0.3-1.3-0.3c0,2.1,0.1,3.2,0.1,3.2
				c0,0.1,0.1,0.2,0.2,0.3c0.1,0.1,0.1,0.2,0.2,0.3c-0.4,0-1.4,0-2.9,0c0-0.1,0-0.1,0.1-0.2c0.1-0.1,0.2-0.2,0.2-0.2
				c0,0,0-0.1,0.1-0.2c0-0.1,0.1-0.1,0.1-0.2c0.1-0.4,0.2-1.4,0.1-3c0-0.9,0-1.7,0-2.5c0,0,0-0.3,0-0.6c0-0.3,0-0.5,0-0.7
				c0-0.5-0.1-0.9-0.2-1.1c0,0-0.1-0.1-0.4-0.4c0.1-0.1,0.2-0.1,0.3-0.1c0,0,0.1,0,0.4,0c0.3,0,1,0,2.2,0c0.9,0,1.6,0,2.2,0
				c0.6,0,1.2,0.2,1.7,0.5c0.4,0.3,0.7,0.5,0.8,0.7c0.1,0.2,0.2,0.6,0.1,1.1c0,0.5-0.1,0.8-0.3,1.1c-0.2,0.3-0.5,0.6-1,0.8
				c-0.4,0.2-0.9,0.4-1.4,0.4C31.3,50.5,31.6,51,31.8,51.7z M28.5,51C28.5,51,28.5,51,28.5,51c-0.1,1.7,0,2.9,0.4,3.6
				c0.1,0.2,0.2,0.4,0.2,0.3c0,0.1-0.3,0.2-0.8,0.2c-0.1,0-0.3,0-0.6,0c-0.2,0-0.4,0-0.4,0c-0.8,0-1.2,0-1.2-0.1
				c0-0.1,0.1-0.1,0.2-0.1c0,0,0.1,0,0.1,0c0.1,0,0.1,0,0.1,0c0.3,0,0.7,0,1.1,0c0.5,0,0.9,0,1.1,0c-0.1-0.3-0.2-0.5-0.3-0.6
				c-0.2-0.4-0.2-0.9-0.2-1.6c0-0.2,0-0.5,0-0.9c0-0.4,0-0.6,0-0.8C28.4,51,28.4,51,28.5,51C28.4,51,28.4,51,28.5,51
				C28.4,51,28.5,51,28.5,51z M31.6,47.5c-0.2-0.2-0.4-0.3-0.6-0.3c-0.3-0.1-0.8-0.1-1.4-0.1c-0.7,0-1.2,0-1.4,0c0,0.2-0.1,0.9,0,2
				c0.2,0,0.5,0,1.1,0c0.5,0,0.9,0,1.1-0.1c0.9-0.1,1.3-0.4,1.4-1C31.9,47.9,31.8,47.7,31.6,47.5z M31.3,47.6
				c-0.2-0.1-0.2-0.1-0.2-0.1c-0.3-0.1-0.7-0.1-1.2-0.1c-0.1,0-0.4,0-0.6,0c-0.3,0-0.5,0-0.6,0c-0.1,1-0.1,1.5-0.1,1.5
				c-0.1,0-0.1-0.1-0.1-0.1c0,0,0-0.1,0-0.1c0,0,0-0.1,0-0.1c0-0.4,0-0.8,0-1.3c0.8-0.1,1.4-0.1,1.6-0.1c0.7,0,1.2,0.2,1.4,0.4
				C31.5,47.7,31.4,47.7,31.3,47.6z M33.9,53.8C33.9,53.8,33.9,53.8,33.9,53.8c-0.7-0.1-1.1-0.4-1.5-1c0,0-0.2-0.6-0.7-1.8
				c0,0-0.1-0.1-0.2-0.2c-0.1-0.1-0.1-0.2-0.1-0.2c0.7-0.1,1.2-0.3,1.6-0.7c0.4-0.4,0.7-0.9,0.7-1.5c0-0.5,0-0.7,0-0.7
				c0.1,0.1,0.2,0.3,0.1,0.7c0,0.6-0.3,1.1-0.8,1.6c-0.4,0.4-1,0.7-1.6,0.7c0,0.1,0.1,0.4,0.3,1c0.1,0.4,0.3,0.7,0.4,1
				c0.4,0.7,0.9,1.1,1.5,1.2C33.9,53.6,33.9,53.7,33.9,53.8C33.9,53.7,33.9,53.7,33.9,53.8C33.9,53.7,33.9,53.7,33.9,53.8z
				 M34.1,54.2c0,0.3,0,0.6,0,0.6c-0.1,0-0.1,0.1-0.1,0.1c0,0,0,0,0,0.1c0,0,0,0.1,0,0.1c-0.8,0-1.3-0.1-1.4-0.1c0.2,0,0.4,0,0.6,0
				c0.3,0,0.6,0,0.7,0c0-0.1,0-0.2,0.1-0.5c0-0.3,0-0.6,0.1-0.7C34.1,53.7,34.1,53.9,34.1,54.2z"/>
			<path fill="#231F20" d="M39.7,45.8c-0.1,0.1-0.1,0.1-0.1,0.2c-0.1,0.2,0,0.6,0.2,1.1c0.1,0.3,0.3,0.9,0.5,1.6
				c0.2,0.7,0.4,1.2,0.5,1.5c0.4,1.2,0.7,1.9,0.7,2.1c0.3,1.1,0.6,1.7,0.8,2c0.2,0.3,0.3,0.4,0.3,0.4c0,0-0.1,0-0.1,0
				c-0.1,0-0.1,0-0.2,0c-0.3,0-0.7,0-1.3,0c-0.5,0-0.9,0-1.2,0c0-0.1,0.1-0.2,0.2-0.3c0-0.1,0-0.2,0.1-0.3c0-0.1,0-0.2,0-0.3
				c-0.1-0.4-0.2-0.8-0.5-1.2c-1.2,0-1.9,0-2.2,0c-0.3,0.9-0.5,1.5-0.5,1.8c0,0.1,0.1,0.1,0.1,0.2c0.1,0.1,0.1,0.2,0.1,0.2
				c-0.9,0.1-1.8,0-2.7,0c0,0,0.1-0.1,0.2-0.2c0.1-0.1,0.2-0.2,0.2-0.2c0.1-0.2,0.4-0.9,0.9-2c0.2-0.5,0.4-1.1,0.6-1.8
				c0-0.1,0.2-0.6,0.4-1.4c0.2-0.6,0.3-1,0.4-1.4c0-0.1,0-0.2,0.1-0.4c0.1-0.2,0.1-0.3,0.1-0.4c0.1-0.3,0.1-0.6,0-0.8
				c0-0.1-0.1-0.1-0.1-0.2c-0.1-0.1-0.1-0.1-0.1-0.2c0-0.1,0.1-0.1,0.4-0.1c0.2,0,0.5,0,1,0c0.4,0,0.8,0,1,0c0,0,0.1,0,0.1,0
				c0,0,0.1,0,0.1,0c0.1,0,0.1,0,0.2,0.1C39.9,45.6,39.8,45.7,39.7,45.8z M39.2,52.8c-0.1,0-0.3,0-0.7,0c-0.3,0-0.5,0-0.7,0
				c-0.3,0.6-0.4,1-0.3,1.3c0,0.1,0.1,0.3,0.2,0.5c0.1,0.2,0.2,0.3,0.1,0.4c-0.2,0-0.6,0.1-1.1,0.1c-0.7,0-1.1,0-1.3,0
				c0,0-0.1,0-0.1,0c0,0-0.1,0-0.1,0c-0.1,0-0.1,0-0.2-0.1c0-0.1,0.1-0.1,0.2-0.2c0,0,0.1,0,0.3,0c0.3,0,0.7,0,1.1,0
				c0.6,0,0.9,0,1.1,0c0-0.1-0.1-0.2-0.2-0.4c-0.1-0.2-0.2-0.3-0.2-0.4c0-0.2,0-0.5,0.1-0.8c0,0,0.1-0.2,0.2-0.4
				c0.1-0.1,0.1-0.3,0.1-0.3c0.2,0,0.4,0,0.7,0c0.4,0,0.6,0,0.7,0c0,0,0.1,0,0.2,0c0.1,0,0.1,0,0.2,0c0.1,0,0.2,0,0.2,0.1
				C39.5,52.7,39.4,52.8,39.2,52.8z M38.6,51.4c0.3,0,0.5,0,0.7,0c-0.5-1-0.7-1.6-0.7-1.6c-0.1,0.2-0.2,0.4-0.3,0.8
				c-0.1,0.4-0.3,0.6-0.3,0.8C38,51.4,38.2,51.4,38.6,51.4z M38.5,50.7c0,0,0,0.1-0.1,0.2c0,0.1,0,0.1-0.1,0.2
				c-0.1,0.1-0.1,0.2-0.2,0.2c0,0,0,0-0.1-0.1c0.2-0.5,0.4-0.9,0.5-1.1c0,0,0.1,0,0.1,0C38.7,50.2,38.6,50.4,38.5,50.7z M40.2,45.9
				c-0.1,0.1-0.1,0.2-0.1,0.2c0,0.1,0,0.3,0,0.5c0.1,0.3,0.4,1.5,1.1,3.7c0.1,0.3,0.3,0.9,0.6,1.8c0.3,0.9,0.6,1.5,0.7,1.8
				c0.1,0.2,0.2,0.4,0.3,0.5c0,0,0.1,0.1,0.1,0.1c0.1,0.1,0.1,0.1,0.1,0.2c0.1,0.1,0.1,0.2,0,0.3c-0.5,0.1-1.3,0.1-2.2,0.1
				c-0.4,0-0.6,0-0.7-0.1c0-0.1,0.1-0.1,0.2-0.1c0,0,0.1,0,0.2,0c0.1,0,0.1,0,0.2,0c1.4,0,2.2,0,2.2,0c0,0-0.1-0.1-0.4-0.4
				c0,0-0.1-0.2-0.3-0.6c0-0.1-0.1-0.2-0.2-0.3c-0.1-0.1-0.1-0.2-0.1-0.3c-0.1-0.2-0.2-0.5-0.3-0.9c-0.1-0.4-0.2-0.7-0.3-0.9
				c-0.4-1-0.6-1.6-0.6-1.7c0-0.1-0.1-0.4-0.3-0.8c-0.1-0.4-0.2-0.7-0.3-0.9c-0.2-0.5-0.2-0.8-0.3-0.9c-0.1-0.3-0.2-0.6-0.2-0.8
				c0-0.3,0-0.5,0.2-0.6c0,0,0.1,0,0.1,0c0,0,0.1,0,0.1,0C40.2,45.8,40.2,45.8,40.2,45.9z"/>
			<path fill="#231F20" d="M49.5,51.7c0.2,0.8,0.5,1.4,0.7,1.6c0.3,0.4,0.7,0.6,1.2,0.6c0,0.3,0,0.6,0,0.7c-0.6,0.1-1,0-1.4-0.1
				c-0.6-0.2-1.2-0.7-1.7-1.5c-0.1-0.2-0.3-0.5-0.6-1.1c-0.2-0.4-0.4-0.8-0.6-1c-0.5-0.2-0.9-0.3-1.3-0.3c0,2.1,0.1,3.2,0.1,3.2
				c0,0.1,0.1,0.2,0.2,0.3c0.1,0.1,0.1,0.2,0.2,0.3c-0.4,0-1.4,0-2.9,0c0-0.1,0-0.1,0.1-0.2c0.1-0.1,0.2-0.2,0.2-0.2
				c0,0,0-0.1,0.1-0.2c0-0.1,0.1-0.1,0.1-0.2c0.1-0.4,0.2-1.4,0.1-3c0-0.9,0-1.7,0-2.5c0,0,0-0.3,0-0.6c0-0.3,0-0.5,0-0.7
				c0-0.5-0.1-0.9-0.2-1.1c0,0-0.1-0.1-0.4-0.4c0.1-0.1,0.2-0.1,0.3-0.1c0,0,0.1,0,0.4,0c0.3,0,1,0,2.2,0c0.9,0,1.6,0,2.2,0
				c0.6,0,1.2,0.2,1.7,0.5c0.4,0.3,0.7,0.5,0.8,0.7c0.1,0.2,0.2,0.6,0.1,1.1c0,0.5-0.1,0.8-0.3,1.1c-0.2,0.3-0.5,0.6-1,0.8
				c-0.4,0.2-0.9,0.4-1.4,0.4C49,50.5,49.3,51,49.5,51.7z M46.2,51C46.2,51,46.2,51,46.2,51c-0.1,1.7,0,2.9,0.4,3.6
				c0.1,0.2,0.2,0.4,0.2,0.3c0,0.1-0.3,0.2-0.8,0.2c-0.1,0-0.3,0-0.6,0c-0.2,0-0.4,0-0.4,0c-0.8,0-1.2,0-1.2-0.1
				c0-0.1,0.1-0.1,0.2-0.1c0,0,0.1,0,0.1,0c0.1,0,0.1,0,0.1,0c0.3,0,0.7,0,1.1,0c0.5,0,0.9,0,1.1,0c-0.1-0.3-0.2-0.5-0.3-0.6
				C46.1,54,46,53.4,46,52.7c0-0.2,0-0.5,0-0.9c0-0.4,0-0.6,0-0.8C46.1,51,46.1,51,46.2,51C46.1,51,46.1,51,46.2,51
				C46.1,51,46.2,51,46.2,51z M49.3,47.5c-0.2-0.2-0.4-0.3-0.6-0.3c-0.3-0.1-0.8-0.1-1.4-0.1c-0.7,0-1.2,0-1.4,0c0,0.2-0.1,0.9,0,2
				c0.2,0,0.5,0,1.1,0c0.5,0,0.9,0,1.1-0.1c0.9-0.1,1.3-0.4,1.4-1C49.6,47.9,49.5,47.7,49.3,47.5z M49,47.6
				c-0.2-0.1-0.2-0.1-0.2-0.1c-0.3-0.1-0.7-0.1-1.2-0.1c-0.1,0-0.4,0-0.6,0c-0.3,0-0.5,0-0.6,0c-0.1,1-0.1,1.5-0.1,1.5
				c-0.1,0-0.1-0.1-0.1-0.1c0,0,0-0.1,0-0.1c0,0,0-0.1,0-0.1c0-0.4,0-0.8,0-1.3c0.8-0.1,1.4-0.1,1.6-0.1c0.7,0,1.2,0.2,1.4,0.4
				C49.2,47.7,49.1,47.7,49,47.6z M51.6,53.8C51.6,53.8,51.6,53.8,51.6,53.8c-0.7-0.1-1.1-0.4-1.5-1c0,0-0.2-0.6-0.7-1.8
				c0,0-0.1-0.1-0.2-0.2c-0.1-0.1-0.1-0.2-0.1-0.2c0.7-0.1,1.2-0.3,1.6-0.7c0.4-0.4,0.7-0.9,0.7-1.5c0-0.5,0-0.7,0-0.7
				c0.1,0.1,0.2,0.3,0.1,0.7c0,0.6-0.3,1.1-0.8,1.6c-0.4,0.4-1,0.7-1.6,0.7c0,0.1,0.1,0.4,0.3,1c0.1,0.4,0.3,0.7,0.4,1
				c0.4,0.7,0.9,1.1,1.5,1.2C51.6,53.6,51.6,53.7,51.6,53.8C51.6,53.7,51.6,53.7,51.6,53.8C51.6,53.7,51.6,53.7,51.6,53.8z
				 M51.8,54.2c0,0.3,0,0.6,0,0.6c-0.1,0-0.1,0.1-0.1,0.1c0,0,0,0,0,0.1c0,0,0,0.1,0,0.1c-0.8,0-1.3-0.1-1.4-0.1c0.2,0,0.4,0,0.6,0
				c0.3,0,0.6,0,0.7,0c0-0.1,0-0.2,0.1-0.5c0-0.3,0-0.6,0.1-0.7C51.8,53.7,51.8,53.9,51.8,54.2z"/>
			<path fill="#231F20" d="M61.5,48.3c-0.3,0.2-0.6,0.3-0.8,0.4c-0.2,0.1-0.3,0.1-0.3,0.2c-0.2-0.1-0.3-0.1-0.3,0
				c0.1-0.1,0.1-0.3,0.2-0.4c0,0,0,0,0-0.1c0-0.3-0.1-0.7-0.5-1.1c-0.3-0.2-0.7-0.3-1.2-0.1c-0.5,0.1-0.9,0.4-1.1,0.8
				c-0.1,0.1-0.1,0.2-0.1,0.2c0,0.1,0,0.2-0.1,0.2c0,0.2,0.1,0.4,0.1,0.4c0,0.1,0.2,0.2,0.3,0.4c0.1,0.1,0.6,0.2,1.2,0.4
				c0.7,0.1,1.2,0.2,1.3,0.3c0.7,0.3,1.1,0.7,1.4,1c0.3,0.5,0.5,1,0.5,1.6c0,0.5-0.3,0.9-0.7,1.4c-0.2,0.2-0.4,0.4-0.7,0.5
				c-0.7,0.4-1.4,0.5-2.2,0.4c-0.5-0.1-1.2-0.2-1.9-0.5c-0.5-0.4-0.9-0.8-1.2-1.4c-0.1-0.2-0.1-0.3-0.1-0.4c0.1,0,0.2-0.1,0.5-0.3
				c0.2-0.1,0.4-0.2,0.5-0.2c0,0,0.1-0.1,0.4-0.3c0,0,0.1,0,0.1-0.1c0,0,0.1-0.1,0.1-0.1c0.1,0,0.2-0.1,0.2,0c0,0.1,0,0.1-0.1,0.3
				c0,0.1-0.1,0.2,0,0.3c0.1,0.3,0.3,0.6,0.6,0.8c0.2,0.2,0.5,0.3,0.7,0.3c0.3,0,0.4,0,0.4,0c0.9-0.2,1.4-0.5,1.5-0.9
				c0-0.4-0.1-0.7-0.3-0.9c-0.2-0.2-0.4-0.3-0.8-0.4c-1.7-0.4-2.6-0.6-2.5-0.6c-0.2-0.1-0.5-0.3-0.7-0.5c-0.2-0.2-0.4-0.4-0.4-0.6
				c-0.1-0.2-0.1-0.5-0.1-0.8c0-0.3,0-0.6,0.1-0.8c0.2-0.6,0.5-1.1,0.9-1.3c0,0,0,0,0.1-0.1c0,0,0.1,0,0.1-0.1
				c0.7-0.3,1.4-0.5,2.2-0.5c0.5,0,1,0.1,1.4,0.3c0.9,0.4,1.5,1.1,1.8,2.1C62.1,48,61.9,48.1,61.5,48.3z M60.1,51.5
				c-0.2-0.3-0.7-0.4-1.5-0.6c-1.1-0.2-1.9-0.4-2.3-0.8c0,0,0,0,0-0.1c0,0,0-0.1,0-0.1c0,0,0,0,0,0h0c0.3,0.3,0.9,0.6,1.8,0.7
				c1,0.1,1.6,0.3,1.9,0.6c0.2,0.2,0.3,0.4,0.2,0.5C60.3,51.8,60.2,51.7,60.1,51.5z M58.4,47.5c-0.3,0.2-0.5,0.4-0.5,0.7
				c0,0.3,0,0.5,0.2,0.6c0,0,0,0.1-0.1,0.1c0,0-0.1,0-0.2,0c0-0.1-0.1-0.2-0.1-0.2c0-0.1,0-0.2,0-0.3c0-0.1,0-0.3,0-0.3
				c0-0.2,0.2-0.4,0.4-0.6c0.2-0.2,0.4-0.3,0.6-0.4c0.1,0,0.2-0.1,0.3-0.1c0.2,0,0.3,0,0.3,0.1C58.9,47.3,58.6,47.4,58.4,47.5z
				 M58.7,54.8c0,0,0.1,0,0.1,0c0.1,0,0.1,0,0.1,0c1,0,1.8-0.3,2.3-0.6c0.6-0.5,1-1.1,1.2-1.9c0,0,0-0.1,0-0.4c0-0.2,0-0.3-0.1-0.4
				v0c0.1,0,0.2,0,0.2,0.1c0,0.1,0,0.2,0,0.4c0,0.4-0.2,0.8-0.5,1.3c0,0-0.1,0.1-0.1,0.2c0,0.1-0.1,0.1-0.1,0.2c0,0,0,0-0.1,0
				c0,0-0.1,0-0.1,0.1c0,0,0,0-0.1,0.1c0,0,0,0.1,0,0.1c-0.3,0.3-0.7,0.6-1.4,0.8C59.8,55,59.2,55,58.7,55c-0.1,0-0.2,0-0.2-0.1
				C58.6,54.8,58.6,54.8,58.7,54.8z M62.2,48.2c0,0,0,0-0.1,0.1c-0.1,0-0.1,0-0.1,0c-0.1,0-0.3,0.2-0.7,0.4
				c-0.3,0.2-0.5,0.3-0.7,0.4c0,0,0,0-0.1,0c0-0.1,0.1-0.2,0.2-0.2c0.1-0.1,0.3-0.2,0.7-0.4c0.3-0.2,0.5-0.3,0.7-0.3l0,0
				c0,0,0,0,0,0C62.1,48.1,62.1,48.1,62.2,48.2C62.2,48.2,62.2,48.2,62.2,48.2z"/>
			<path fill="#231F20" d="M69.9,47.4c0,0-0.1,0-0.2,0c-0.1,0-0.2,0-0.3,0c0-0.1-0.1-0.2-0.2-0.4c-0.5,0-1.8,0-3.8,0
				c0,0.3,0,0.7,0,1.2c0,0.6,0,1,0,1.3c0.3,0.1,0.6,0.1,0.8,0c0.3-0.1,0.4-0.2,0.4-0.5c0,0,0.1,0,0.2,0c0.1,0,0.2,0,0.2,0
				c0,0.2,0,0.5-0.1,0.9c0,0.5,0,0.8,0,0.9c-0.1,0.1-0.3,0.1-0.4,0c0,0-0.1-0.1-0.2-0.2c-0.1-0.1-0.1-0.2-0.1-0.2
				c-0.1,0-0.2,0-0.5,0c-0.2,0-0.3,0-0.4,0c0,0.3,0,1.1-0.1,2.4c0.4,0.1,1.4,0.1,2.9,0.1l0.8,0c0.3,0,0.4-0.2,0.5-0.4
				c0.3,0,0.5,0.1,0.5,0.1c0,0.1-0.2,0.4-0.4,0.9c-0.1,0.4-0.2,0.7-0.3,0.9c-0.8,0.1-1.8,0.1-3,0c-0.4,0-1,0-1.7,0
				c-0.9,0-1.4,0-1.6,0c0-0.1,0.1-0.2,0.2-0.4c0.2-0.4,0.4-0.8,0.4-1.2c0.1-2.2,0.1-4.1,0.1-5.9c0-0.3-0.1-0.6-0.1-0.7
				c0-0.1-0.1-0.3-0.3-0.5c-0.1-0.2-0.2-0.3-0.3-0.4c2.7,0,4.7,0,6,0c0.2,0,0.3,0,0.4,0.1c0.1,0.1,0.2,0.3,0.3,0.9
				c0.2,0.5,0.2,0.8,0.3,1C70,47.4,69.9,47.4,69.9,47.4z M70.4,53c0.1,0.1,0.1,0.1,0,0.2c0,0,0,0.1-0.1,0.1c0,0.1,0,0.1-0.1,0.1
				c-0.3,0.8-0.5,1.3-0.6,1.5c0,0-1.8,0-5.5,0c0,0-0.1,0-0.1,0c-0.1,0-0.1,0-0.1,0c-0.1,0-0.2,0-0.2-0.1c0.2-0.1,0.6-0.1,1.1-0.1
				l1.2,0.1c0.4,0,1,0,1.7,0c0.8,0,1.4,0,1.8,0c0.1-0.2,0.3-0.5,0.4-0.9C70.1,53.4,70.2,53.1,70.4,53L70.4,53z M66.1,51.1
				c0,0,0,0-0.1,0c-0.1,0-0.1,0-0.2,0c0,0.1,0,0.2,0,0.3c0,0.2,0,0.3,0,0.3c0,0,0,0.3,0,0.7c0,0.3,0,0.5-0.1,0.5c0-0.2-0.1-0.5,0-1
				c0-0.5,0-0.9,0-1.1c0.1,0,0.2,0,0.4,0c0.1,0,0.2,0,0.2,0.1C66.3,51,66.2,51.1,66.1,51.1z M69.2,47.2c0,0.2,0.1,0.3,0.4,0.4
				c0.4,0.1,0.6,0.1,0.6,0.1c-0.1,0.1-0.2,0.1-0.4,0.1c-0.3,0-0.5,0-0.5,0c0,0,0-0.1-0.1-0.2c0-0.1-0.1-0.1-0.1-0.2
				c-1.5,0-2.5,0-3.2,0c0,0.3-0.1,0.8-0.1,1.4c0,0,0,0.1,0,0.2c0,0.1,0,0.1,0,0.2c0,0.1,0,0.2-0.1,0.3c-0.1-0.3-0.1-0.6-0.1-1.1
				c0-0.7,0-1,0-1.1C66.6,47.2,67.8,47.2,69.2,47.2z M67.4,49.2c0,0.5,0,1.3-0.1,2.2c-0.1,0-0.2,0-0.4,0c-0.1,0-0.2,0-0.2,0
				c0-0.1,0.1-0.1,0.2-0.1c0.2,0,0.2,0,0.3,0c0-0.2,0.1-0.5,0.1-1C67.3,49.8,67.3,49.4,67.4,49.2L67.4,49.2z"/>
			<path fill="#231F20" d="M76.7,48.3c-0.3,0.2-0.6,0.3-0.8,0.4c-0.2,0.1-0.3,0.1-0.3,0.2c-0.2-0.1-0.3-0.1-0.3,0
				c0.1-0.1,0.1-0.3,0.2-0.4c0,0,0,0,0-0.1c0-0.3-0.1-0.7-0.5-1.1C74.8,47,74.4,46.9,74,47c-0.5,0.1-0.9,0.4-1.1,0.8
				c-0.1,0.1-0.1,0.2-0.1,0.2c0,0.1,0,0.2-0.1,0.2c0,0.2,0.1,0.4,0.1,0.4c0,0.1,0.2,0.2,0.3,0.4c0.1,0.1,0.6,0.2,1.2,0.4
				c0.7,0.1,1.2,0.2,1.3,0.3c0.7,0.3,1.1,0.7,1.4,1c0.3,0.5,0.5,1,0.5,1.6c0,0.5-0.3,0.9-0.7,1.4c-0.2,0.2-0.4,0.4-0.7,0.5
				c-0.7,0.4-1.4,0.5-2.2,0.4c-0.5-0.1-1.2-0.2-1.9-0.5c-0.5-0.4-0.9-0.8-1.2-1.4c-0.1-0.2-0.1-0.3-0.1-0.4c0.1,0,0.2-0.1,0.5-0.3
				c0.2-0.1,0.4-0.2,0.5-0.2c0,0,0.1-0.1,0.4-0.3c0,0,0.1,0,0.1-0.1c0,0,0.1-0.1,0.1-0.1c0.1,0,0.2-0.1,0.2,0c0,0.1,0,0.1-0.1,0.3
				c0,0.1-0.1,0.2,0,0.3c0.1,0.3,0.3,0.6,0.6,0.8c0.2,0.2,0.5,0.3,0.7,0.3c0.3,0,0.4,0,0.4,0c0.9-0.2,1.4-0.5,1.5-0.9
				c0-0.4-0.1-0.7-0.3-0.9c-0.2-0.2-0.4-0.3-0.8-0.4c-1.7-0.4-2.6-0.6-2.5-0.6c-0.2-0.1-0.5-0.3-0.7-0.5c-0.2-0.2-0.4-0.4-0.4-0.6
				C71,48.9,71,48.7,71,48.3c0-0.3,0-0.6,0.1-0.8c0.2-0.6,0.5-1.1,0.9-1.3c0,0,0,0,0.1-0.1c0,0,0.1,0,0.1-0.1
				c0.7-0.3,1.4-0.5,2.2-0.5c0.5,0,1,0.1,1.4,0.3c0.9,0.4,1.5,1.1,1.8,2.1C77.4,48,77.2,48.1,76.7,48.3z M75.4,51.5
				c-0.2-0.3-0.7-0.4-1.5-0.6c-1.1-0.2-1.9-0.4-2.3-0.8c0,0,0,0,0-0.1c0,0,0-0.1,0-0.1c0,0,0,0,0,0h0c0.3,0.3,0.9,0.6,1.8,0.7
				c1,0.1,1.6,0.3,1.9,0.6c0.2,0.2,0.3,0.4,0.2,0.5C75.6,51.8,75.5,51.7,75.4,51.5z M73.7,47.5c-0.3,0.2-0.5,0.4-0.5,0.7
				c0,0.3,0,0.5,0.2,0.6c0,0,0,0.1-0.1,0.1c0,0-0.1,0-0.2,0c0-0.1-0.1-0.2-0.1-0.2c0-0.1,0-0.2,0-0.3c0-0.1,0-0.3,0-0.3
				c0-0.2,0.2-0.4,0.4-0.6c0.2-0.2,0.4-0.3,0.6-0.4c0.1,0,0.2-0.1,0.3-0.1c0.2,0,0.3,0,0.3,0.1C74.2,47.3,73.9,47.4,73.7,47.5z
				 M74,54.8c0,0,0.1,0,0.1,0c0.1,0,0.1,0,0.1,0c1,0,1.8-0.3,2.3-0.6c0.6-0.5,1-1.1,1.2-1.9c0,0,0-0.1,0-0.4c0-0.2,0-0.3-0.1-0.4v0
				c0.1,0,0.2,0,0.2,0.1c0,0.1,0,0.2,0,0.4c0,0.4-0.2,0.8-0.5,1.3c0,0-0.1,0.1-0.1,0.2c0,0.1-0.1,0.1-0.1,0.2c0,0,0,0-0.1,0
				c0,0-0.1,0-0.1,0.1c0,0,0,0-0.1,0.1c0,0,0,0.1,0,0.1c-0.3,0.3-0.7,0.6-1.4,0.8C75,55,74.5,55,74,55c-0.1,0-0.2,0-0.2-0.1
				C73.9,54.8,73.9,54.8,74,54.8z M77.5,48.2c0,0,0,0-0.1,0.1c-0.1,0-0.1,0-0.1,0c-0.1,0-0.3,0.2-0.7,0.4c-0.3,0.2-0.5,0.3-0.7,0.4
				c0,0,0,0-0.1,0c0-0.1,0.1-0.2,0.2-0.2c0.1-0.1,0.3-0.2,0.7-0.4c0.3-0.2,0.5-0.3,0.7-0.3l0,0c0,0,0,0,0,0
				C77.4,48.1,77.4,48.1,77.5,48.2C77.5,48.2,77.5,48.2,77.5,48.2z"/>
			<path fill="#231F20" d="M80.6,54.7h-1.5c-0.4,0-0.6,0-0.7,0c0,0,0-0.1,0.1-0.1c0.1-0.1,0.1-0.1,0.1-0.2c0.2-0.1,0.3-0.4,0.4-0.7
				c0,0,0-0.3,0-1c0-0.3,0-1.5,0-3.5c0-0.1,0-0.4,0-0.7c0-0.4,0-0.7,0-0.9c0-0.7-0.1-1.2-0.2-1.6c0-0.1-0.1-0.2-0.3-0.4
				c0-0.1,0.1-0.1,0.3-0.1c0,0,0.1,0,0.2,0c0.1,0,0.1,0,0.2,0H81c0.1,0,0.2,0,0.2,0c0.1,0,0.1,0,0.1,0.1c0,0-0.1,0.1-0.2,0.3
				c-0.2,0.3-0.3,1.2-0.3,2.5c0,0.3,0,0.9,0,1.7c0,0.8,0,1.4,0,1.8c0,0.1,0,0.3,0,0.7c0,0.3,0,0.5,0,0.6c0,0.4,0.1,0.8,0.3,1.1
				c0,0,0.1,0.1,0.1,0.2c0.1,0.1,0.1,0.1,0.1,0.2C81.3,54.6,81,54.7,80.6,54.7z M81.8,54.8c0,0.1,0,0.1,0,0.2c0.1,0-0.8,0-2.7,0
				c0,0,0,0-0.1,0S79,55,79,55c-0.1,0-0.1,0-0.1-0.1c0-0.1,0.1-0.1,0.2-0.1c0,0,0.1,0,0.2,0c0.1,0,0.1,0,0.1,0c0.2,0,0.6,0,1.2,0
				c0.5,0,0.9,0,1.2,0c0-0.1-0.1-0.3-0.2-0.5c-0.1-0.2-0.2-0.4-0.3-0.5c-0.1-0.3-0.2-0.7-0.2-1.2c0,0,0,0,0,0c0,0,0,0,0-0.1
				c0-0.2,0-0.8,0-1.9c0-0.8,0-1.5,0.1-2c0.1-1.3,0.1-1.9,0.1-2c0.1-0.4,0.1-0.6,0.3-0.8c0.1,0,0.2,0,0.1,0.1c0,0,0,0.1-0.1,0.1
				c0,0.1-0.1,0.1-0.1,0.1c-0.1,0.3-0.2,0.8-0.2,1.5c-0.1,2.8-0.1,4.5-0.1,5.2c0,0.8,0.3,1.4,0.7,1.8C81.9,54.7,81.9,54.7,81.8,54.8
				z"/>
			<path fill="#231F20" d="M88.5,45.8c0.6,0.2,1.2,0.6,1.8,1.3c1,1.1,1.3,2.4,1.1,3.8c-0.1,0.3-0.2,0.8-0.5,1.4
				c-0.5,1-1.3,1.7-2.4,2.2c-0.5,0.2-0.9,0.3-1.4,0.3c-0.7,0-1.4-0.2-2.1-0.5c-0.6-0.3-1.2-0.7-1.6-1.2c-0.4-0.5-0.7-1-0.9-1.4
				c-0.2-0.6-0.3-1.2-0.2-1.8c0.1-0.7,0.2-1.2,0.5-1.7c0.3-0.5,0.6-0.9,0.9-1.2c0.7-0.7,1.7-1.1,3-1.2
				C87.2,45.5,87.8,45.6,88.5,45.8z M89.4,49.1c-0.2-0.6-0.6-1.1-1-1.4c-0.5-0.4-1.1-0.5-1.8-0.5c-0.6,0.1-1.1,0.3-1.6,0.8
				c-0.5,0.5-0.8,1-0.9,1.6c-0.1,0.6,0,1.2,0.4,2c0.9,0.9,1.7,1.4,2.4,1.4c0.6,0,1.2-0.2,1.7-0.6c0.5-0.4,0.8-1,0.9-1.6
				c0-0.1,0-0.4,0-0.7c0-0.3,0-0.5-0.1-0.7C89.4,49.3,89.4,49.3,89.4,49.1z M87,47.5c-0.2,0-0.4,0-0.4,0c-0.4,0.1-0.7,0.2-1.1,0.5
				c-0.4,0.2-0.7,0.6-0.9,1c-0.2,0.4-0.3,0.9-0.2,1.5c0,0.2,0.2,0.6,0.5,1.2c-0.1,0-0.3-0.1-0.4-0.5c-0.1-0.3-0.2-0.5-0.2-0.7
				c-0.1-0.6,0-1.1,0.2-1.5c0.2-0.4,0.5-0.8,1-1.1c0.5-0.3,1-0.5,1.5-0.5c0.2,0,0.4,0,0.4,0.1C87.4,47.5,87.2,47.5,87,47.5z
				 M86.3,54.8c0,0,0.1,0,0.2,0c0.1,0,0.1,0,0.2,0c1.4,0.1,2.7-0.3,3.6-1.3c1-1,1.4-2.2,1.4-3.6c0-0.4-0.1-0.9-0.2-1.3
				c-0.1-0.4-0.3-0.8-0.6-1c0,0,0,0,0,0c0,0,0,0,0,0c0.1,0,0.1,0,0.1,0c0.3,0.3,0.5,0.7,0.6,1.2c0.2,0.5,0.2,1.1,0.2,1.6
				c-0.1,1.5-0.7,2.8-1.8,3.7c-1.1,0.9-2.5,1.3-4.1,0.9C86,54.8,86.2,54.8,86.3,54.8z"/>
			<path fill="#231F20" d="M97.3,49.4c0.1-1,0.1-1.8,0-2.2c-0.1-0.6-0.2-1-0.3-1.2c-0.2-0.3-0.3-0.4-0.3-0.3c0-0.1,0.2-0.1,0.6-0.1
				c0.1,0,0.2,0,0.4,0c0.2,0,0.2,0,0.3,0c0.2,0,0.5,0,0.9,0c0.4,0,0.7,0,0.8,0c0,0-0.1,0.2-0.2,0.4c-0.1,0.3-0.2,0.9-0.2,1.8
				c0,0.6,0,1.4,0,2.2c0,1.1,0,1.8,0,2.2c0,1.1,0,1.7,0.1,1.9c0.1,0.3,0.2,0.5,0.2,0.5c0,0-0.2,0-0.7,0c-1,0-1.5,0-1.5,0
				c0,0-0.2-0.5-0.6-1.5c-0.2-0.6-0.5-1.3-1-2.3c-0.5-1.1-0.8-1.9-1-2.3c-0.1,1.8-0.1,3.3-0.1,4.6c0,0.5,0.1,0.9,0.4,1.2
				c0,0,0,0,0.1,0.1c0,0,0.1,0,0.1,0.1c0,0.1,0.1,0.1,0,0.2c0,0,0,0.1-0.1,0.1c-0.1,0-0.1,0-0.1,0c-0.1,0-0.4,0-0.9,0
				c-0.5,0-0.8,0-1,0c-0.6,0-0.8,0-0.8,0c0.3-0.5,0.5-0.7,0.5-0.8c0.1-0.2,0.1-0.8,0-1.8c0-0.3,0-1,0-2.2c0-0.3,0-0.9,0-2.1
				c0-0.6,0-0.9,0-1c0-0.4-0.1-0.7-0.3-0.8c-0.2-0.2-0.2-0.3-0.2-0.3c0-0.1,0.1-0.1,0.2-0.1c0.1,0,0.2,0,0.2,0c0,0,0.5,0,1.5,0.1
				l0.5,0c0,0,0.1,0.3,0.3,0.7c0.2,0.6,0.6,1.5,1.1,2.7c0.5,1.2,0.9,2.1,1.1,2.6C97.3,50.4,97.3,49.6,97.3,49.4z M95,49.7
				c0,0,0,0,0,0.2c0,0.1,0,0.3,0,0.5c0,0.3,0,0.5,0,0.6c0,1,0,1.8,0.1,2.4c0.1,0.4,0.2,0.8,0.4,1.1c0,0,0,0.1,0.1,0.1
				c0.1,0,0.1,0.1,0.1,0.1c0,0,0,0,0,0c0,0,0,0,0,0c0,0,0,0,0,0c0,0,0,0,0,0c0,0,0,0.1,0,0.1c0,0.1-0.1,0.1-0.2,0.1c0,0-0.1,0-0.2,0
				c-0.1,0-0.2,0-0.2,0c-0.3,0-1,0-2.1,0c0,0-0.1,0-0.1,0c-0.1,0-0.1,0-0.1,0c-0.1,0-0.1,0-0.2-0.1c0-0.1,0.1-0.1,0.2-0.1
				c0,0,0.1,0,0.2,0c0.1,0,0.1,0,0.2,0c0.2,0,0.6,0,1.1,0c0.5,0,0.9,0,1.2,0c0,0-0.1-0.1-0.2-0.3c-0.1-0.2-0.2-0.3-0.2-0.3
				c-0.2-0.4-0.3-1.2-0.3-2.1c0-1.5,0.1-2.3,0.1-2.4c0,0,0-0.1,0.1-0.1C95,49.6,95,49.7,95,49.7z M97,50.7C97,50.6,97,50.6,97,50.7
				c0-0.1,0-0.2,0-0.2c0,0-0.3-0.7-0.9-2.2c-0.2-0.5-0.4-1-0.5-1.2c-0.2-0.5-0.4-0.9-0.5-1.2c0,0,0,0,0,0c0,0,0,0,0,0c0,0,0,0,0,0
				c0,0,0,0,0,0c0.1,0,0.1,0.1,0.2,0.3c0,0,0,0.1,0.1,0.2c0,0.1,0.1,0.1,0.1,0.2c0.1,0.1,0.2,0.4,0.4,0.8c0.1,0.3,0.3,0.6,0.3,0.8
				c0.4,1,0.7,1.8,0.9,2.3c0,0,0,0.1,0,0.1c0,0,0,0.1,0.1,0.1c0,0.1,0,0.2,0,0.2C97.1,50.8,97.1,50.7,97,50.7z M99.9,46
				c-0.1,0.1-0.1,0.1-0.1,0.1c-0.1,0.2-0.2,0.8-0.2,1.6c0,0.2,0,0.4,0,0.7c0,0.4,0,0.7,0,0.7c0,0.9-0.1,2.1-0.1,3.5
				c0,0.3,0,0.7,0.1,1.3c0,0.1,0.1,0.3,0.2,0.5c0.1,0.2,0.2,0.4,0.2,0.5C99.8,55,99.4,55,98.8,55c-0.7,0-1.2-0.1-1.2-0.1
				c0-0.1,0-0.2,0.1-0.2c0,0,0.1,0,0.1,0c0.1,0,0.1,0,0.1,0c0.2,0,0.5,0,0.8,0c0.4,0,0.7,0,0.9,0c-0.3-0.3-0.4-0.9-0.5-1.6
				c0-0.1,0-0.3,0-0.6c0-0.3,0-0.4,0-0.5c0-0.6,0-2.1,0.1-4.3c0-0.9,0.1-1.5,0.3-1.8c0-0.1,0.1-0.1,0.2-0.1
				C99.9,45.9,99.9,45.9,99.9,46z"/>
		</g>
	</g>
</g>
</svg>
