<?xml version="1.0" encoding="utf-8"?><!-- Generator: Adobe Illustrator 18.1.1, SVG Export Plug-In . SVG Version: 6.00 Build 0)  -->
<svg version="1.1" id="Capa_1" xmlns="http://www.w3.org/2000/svg" xmlns:xlink="http://www.w3.org/1999/xlink" x="0px" y="0px"
	 viewBox="0 0 100 100" enable-background="new 0 0 100 100" xml:space="preserve">
<g>
	<g>
		<path fill="#4D5A41" d="M60,74.1c-1.3,0-2.4-1.1-2.4-2.4V26.6c0-1.3,1.1-2.4,2.4-2.4c1.3,0,2.4,1.1,2.4,2.4v45.1
			C62.3,73,61.3,74.1,60,74.1z"/>
	</g>
	<g>
		<path fill="#4D5A41" d="M2.4,60C1.1,60,0,58.9,0,57.6V40.7c0-1.3,1.1-2.4,2.4-2.4s2.4,1.1,2.4,2.4v16.9C4.7,58.9,3.7,60,2.4,60z"
			/>
	</g>
	<path fill="#4D5A41" d="M55.3,26.6L7.1,40.7v16.9l8.3,2.4l-2.4,8.6c-0.3,0.9,0.3,1.8,1.2,2.1l17.4,5c0.2,0,0.3,0.1,0.5,0.1
		c0.3,0,0.6-0.1,0.8-0.2c0.4-0.2,0.7-0.6,0.8-1l2.4-8.4l19.3,5.6V26.6z M30.8,71.9l-14.2-4l2-6.9l14.1,4.1L30.8,71.9z"/>
	<g>
		<path fill="#4D5A41" d="M68.8,35.2c-0.5,0-0.9-0.3-1.1-0.8c-0.2-0.6,0.1-1.3,0.7-1.5L90,25.5c0.6-0.2,1.3,0.1,1.5,0.7
			c0.2,0.6-0.1,1.3-0.7,1.5l-21.6,7.4C69,35.2,68.9,35.2,68.8,35.2z"/>
	</g>
	<g>
		<path fill="#4D5A41" d="M90.4,73.1c-0.1,0-0.3,0-0.4-0.1l-21.6-7.4c-0.6-0.2-0.9-0.9-0.7-1.5c0.2-0.6,0.9-0.9,1.5-0.7l21.6,7.4
			c0.6,0.2,0.9,0.9,0.7,1.5C91.3,72.8,90.9,73.1,90.4,73.1z"/>
	</g>
	<g>
		<path fill="#4D5A41" d="M98.8,50.3h-30c-0.7,0-1.2-0.5-1.2-1.2c0-0.7,0.5-1.2,1.2-1.2h30c0.7,0,1.2,0.5,1.2,1.2
			C100,49.8,99.5,50.3,98.8,50.3z"/>
	</g>
</g>
</svg>
