<?xml version="1.0" encoding="utf-8"?><!-- Generator: Adobe Illustrator 18.1.1, SVG Export Plug-In . SVG Version: 6.00 Build 0)  -->
<svg version="1.1" id="Capa_1" xmlns="http://www.w3.org/2000/svg" xmlns:xlink="http://www.w3.org/1999/xlink" x="0px" y="0px"
	 viewBox="0 0 100 100" enable-background="new 0 0 100 100" xml:space="preserve">
<g>
	<g>
		<path fill="none" d="M50.5,26.2c-9.2,0-17.1,5.2-21.1,12.8h42.2C67.7,31.3,59.7,26.2,50.5,26.2z"/>
		<path fill="none" d="M50.5,73.8c9.2,0,17.1-5.2,21.1-12.8H29.4C33.4,68.7,41.3,73.8,50.5,73.8z"/>
		<path fill="none" d="M74.1,61.3c-0.1,0-0.2,0-0.3-0.1c-0.1,0-0.2-0.1-0.2-0.2h-1.1c-4.1,8-12.4,13.6-22,13.6s-17.9-5.5-22-13.6
			h-0.7c0.2,0.5,0.5,1,0.8,1.4c0.2,0.3,0.1,0.7-0.2,0.9c-0.1,0.1-0.2,0.1-0.3,0.1c-0.2,0-0.4-0.1-0.6-0.3c-0.3-0.6-0.6-1.2-0.9-1.8
			c0-0.1-0.1-0.2-0.1-0.3H25c4.3,9.9,14.1,16.8,25.5,16.8s21.3-6.9,25.5-16.8h-1.4C74.5,61.2,74.3,61.3,74.1,61.3z M31,67
			c-0.1,0.1-0.3,0.1-0.4,0.1c-0.2,0-0.4-0.1-0.5-0.2c-0.4-0.5-0.8-1-1.2-1.6c-0.2-0.3-0.1-0.7,0.2-0.9c0.3-0.2,0.7-0.1,0.9,0.2
			c0.4,0.5,0.8,1,1.2,1.5C31.3,66.4,31.3,66.8,31,67z M34.3,70.2c-0.1,0.2-0.3,0.2-0.5,0.2c-0.1,0-0.3-0.1-0.4-0.2
			c-0.5-0.4-1-0.9-1.5-1.3c-0.3-0.3-0.3-0.7,0-0.9c0.3-0.3,0.7-0.3,0.9,0c0.4,0.4,0.9,0.9,1.4,1.3C34.5,69.5,34.5,69.9,34.3,70.2z
			 M38,72.7c-0.1,0.2-0.3,0.3-0.6,0.3c-0.1,0-0.2,0-0.3-0.1c-0.6-0.3-1.1-0.7-1.7-1.1c-0.3-0.2-0.4-0.6-0.2-0.9
			c0.2-0.3,0.6-0.4,0.9-0.2c0.5,0.4,1.1,0.7,1.6,1C38.1,72,38.2,72.4,38,72.7z M42.2,74.5c-0.1,0.3-0.3,0.4-0.6,0.4
			c-0.1,0-0.2,0-0.2,0c-0.6-0.2-1.2-0.5-1.8-0.8c-0.3-0.1-0.5-0.5-0.3-0.9c0.1-0.3,0.5-0.5,0.9-0.3c0.6,0.3,1.2,0.5,1.8,0.7
			C42.1,73.8,42.3,74.2,42.2,74.5z M45.9,76.1c0,0-0.1,0-0.1,0c-0.7-0.1-1.3-0.3-1.9-0.4c-0.3-0.1-0.6-0.4-0.5-0.8
			c0.1-0.3,0.4-0.6,0.8-0.5c0.6,0.2,1.2,0.3,1.8,0.4c0.4,0.1,0.6,0.4,0.5,0.8C46.5,75.9,46.2,76.1,45.9,76.1z M50.4,76.5
			C50.4,76.5,50.4,76.5,50.4,76.5c-0.7,0-1.3,0-2-0.1c-0.4,0-0.6-0.3-0.6-0.7c0-0.4,0.3-0.6,0.7-0.6c0.6,0,1.3,0.1,1.9,0.1
			c0.4,0,0.6,0.3,0.6,0.6C51.1,76.3,50.8,76.5,50.4,76.5z M55,76.2c-0.6,0.1-1.3,0.2-2,0.3c0,0,0,0-0.1,0c-0.3,0-0.6-0.3-0.6-0.6
			c0-0.4,0.2-0.7,0.6-0.7c0.6-0.1,1.3-0.1,1.9-0.3c0.4-0.1,0.7,0.2,0.7,0.5C55.6,75.8,55.4,76.1,55,76.2z M59.5,75
			c-0.6,0.2-1.3,0.4-1.9,0.6c-0.1,0-0.1,0-0.2,0c-0.3,0-0.5-0.2-0.6-0.5c-0.1-0.3,0.1-0.7,0.5-0.8c0.6-0.2,1.2-0.4,1.8-0.6
			c0.3-0.1,0.7,0.1,0.8,0.4C60,74.5,59.9,74.9,59.5,75z M63.7,73c-0.6,0.3-1.2,0.6-1.8,0.9c-0.1,0-0.2,0.1-0.3,0.1
			c-0.2,0-0.5-0.1-0.6-0.4c-0.2-0.3,0-0.7,0.3-0.9c0.6-0.3,1.1-0.6,1.7-0.9c0.3-0.2,0.7-0.1,0.9,0.2C64.2,72.5,64,72.8,63.7,73z
			 M67.5,70.4c-0.5,0.4-1,0.8-1.6,1.2c-0.1,0.1-0.2,0.1-0.4,0.1c-0.2,0-0.4-0.1-0.5-0.3c-0.2-0.3-0.1-0.7,0.1-0.9
			c0.5-0.4,1-0.8,1.5-1.2c0.3-0.2,0.7-0.2,0.9,0.1C67.9,69.7,67.8,70.1,67.5,70.4z M70.8,67.1c-0.4,0.5-0.9,1-1.3,1.5
			c-0.1,0.1-0.3,0.2-0.5,0.2c-0.2,0-0.3-0.1-0.5-0.2c-0.3-0.3-0.3-0.7,0-0.9c0.4-0.4,0.9-0.9,1.3-1.4c0.2-0.3,0.6-0.3,0.9-0.1
			C71,66.4,71.1,66.8,70.8,67.1z M73.5,63.3c-0.3,0.6-0.7,1.1-1.1,1.7c-0.1,0.2-0.3,0.3-0.5,0.3c-0.1,0-0.3,0-0.4-0.1
			c-0.3-0.2-0.4-0.6-0.2-0.9c0.4-0.5,0.7-1.1,1-1.6c0.2-0.3,0.6-0.4,0.9-0.2C73.6,62.6,73.7,63,73.5,63.3z"/>
		<path fill="none" d="M50.5,22.2c-11.4,0-21.3,6.9-25.5,16.8h1.4c0,0,0,0,0-0.1c0.1-0.3,0.5-0.5,0.9-0.3c0.2,0.1,0.3,0.2,0.3,0.4
			h0.9c4.1-8,12.4-13.6,22-13.6s17.9,5.5,22,13.6h0.7c-0.2-0.4-0.4-0.9-0.7-1.3c-0.2-0.3-0.1-0.7,0.2-0.9c0.3-0.2,0.7-0.1,0.9,0.2
			c0.3,0.6,0.6,1.2,0.9,1.8c0,0,0,0.1,0,0.1h1.4C71.8,29.1,61.9,22.2,50.5,22.2z M29.8,35.6c-0.4,0.5-0.7,1.1-1,1.6
			c-0.1,0.2-0.3,0.3-0.6,0.3c-0.1,0-0.2,0-0.3-0.1c-0.3-0.2-0.4-0.6-0.2-0.9c0.3-0.6,0.7-1.1,1.1-1.7c0.2-0.3,0.6-0.4,0.9-0.2
			C29.9,34.9,30,35.3,29.8,35.6z M32.6,32.2c-0.4,0.4-0.9,0.9-1.3,1.4c-0.1,0.1-0.3,0.2-0.5,0.2c-0.1,0-0.3-0.1-0.4-0.2
			c-0.3-0.2-0.3-0.6-0.1-0.9c0.4-0.5,0.9-1,1.3-1.5c0.3-0.3,0.7-0.3,0.9,0C32.9,31.5,32.9,32,32.6,32.2z M36,29.4
			c-0.5,0.4-1,0.7-1.5,1.1c-0.1,0.1-0.3,0.1-0.4,0.1c-0.2,0-0.4-0.1-0.5-0.2c-0.2-0.3-0.2-0.7,0.1-0.9c0.5-0.4,1-0.8,1.6-1.2
			c0.3-0.2,0.7-0.1,0.9,0.2C36.3,28.7,36.3,29.2,36,29.4z M39.8,27.1c-0.6,0.3-1.1,0.6-1.7,0.9c-0.1,0.1-0.2,0.1-0.3,0.1
			c-0.2,0-0.4-0.1-0.6-0.3c-0.2-0.3-0.1-0.7,0.2-0.9c0.6-0.3,1.2-0.6,1.8-0.9c0.3-0.2,0.7,0,0.9,0.3C40.2,26.6,40.1,27,39.8,27.1z
			 M43.9,25.6c-0.6,0.2-1.2,0.4-1.8,0.6c-0.1,0-0.1,0-0.2,0c-0.3,0-0.5-0.2-0.6-0.4c-0.1-0.3,0.1-0.7,0.4-0.8
			c0.6-0.2,1.3-0.4,1.9-0.6c0.3-0.1,0.7,0.1,0.8,0.5C44.5,25.2,44.3,25.5,43.9,25.6z M48.3,24.8c-0.6,0.1-1.3,0.1-1.9,0.2
			c0,0-0.1,0-0.1,0c-0.3,0-0.6-0.2-0.6-0.5c-0.1-0.4,0.2-0.7,0.5-0.7c0.7-0.1,1.3-0.2,2-0.2c0.4,0,0.7,0.2,0.7,0.6
			C48.9,24.5,48.6,24.8,48.3,24.8z M52.7,24.8C52.7,24.8,52.7,24.8,52.7,24.8c-0.7-0.1-1.3-0.1-1.9-0.1c-0.4,0-0.6-0.3-0.6-0.7
			c0-0.4,0.3-0.6,0.7-0.6c0.7,0,1.3,0,2,0.1c0.4,0,0.6,0.3,0.6,0.7C53.4,24.6,53.1,24.8,52.7,24.8z M57.8,25.1
			c-0.1,0.3-0.3,0.5-0.6,0.5c-0.1,0-0.1,0-0.2,0c-0.6-0.2-1.2-0.3-1.8-0.4c-0.4-0.1-0.6-0.4-0.5-0.8c0.1-0.4,0.4-0.6,0.8-0.5
			c0.7,0.1,1.3,0.3,1.9,0.4C57.7,24.4,57.9,24.8,57.8,25.1z M62,26.8c-0.1,0.2-0.3,0.4-0.6,0.4c-0.1,0-0.2,0-0.3-0.1
			c-0.6-0.3-1.2-0.5-1.7-0.7c-0.3-0.1-0.5-0.5-0.4-0.8c0.1-0.3,0.5-0.5,0.8-0.4c0.6,0.2,1.2,0.5,1.8,0.8C62,26.1,62.2,26.5,62,26.8z
			 M65.9,29.2c-0.1,0.2-0.3,0.3-0.5,0.3c-0.1,0-0.3,0-0.4-0.1c-0.5-0.4-1.1-0.7-1.6-1c-0.3-0.2-0.4-0.6-0.2-0.9
			c0.2-0.3,0.6-0.4,0.9-0.2c0.6,0.3,1.1,0.7,1.7,1.1C66,28.5,66.1,28.9,65.9,29.2z M69.3,32.1c-0.1,0.1-0.3,0.2-0.5,0.2
			c-0.2,0-0.3-0.1-0.5-0.2c-0.4-0.4-0.9-0.9-1.4-1.3c-0.3-0.2-0.3-0.6-0.1-0.9c0.2-0.3,0.6-0.3,0.9-0.1c0.5,0.4,1,0.9,1.5,1.4
			C69.5,31.5,69.5,31.9,69.3,32.1z M71.1,33.2c0.4,0.5,0.8,1,1.2,1.6c0.2,0.3,0.1,0.7-0.2,0.9c-0.1,0.1-0.2,0.1-0.4,0.1
			c-0.2,0-0.4-0.1-0.5-0.3c-0.4-0.5-0.7-1-1.1-1.5c-0.2-0.3-0.2-0.7,0.1-0.9C70.4,32.9,70.8,32.9,71.1,33.2z"/>
		<path fill="#70431B" d="M50.5,73.8c-9.2,0-17.1-5.2-21.1-12.8h-0.9c4.1,8,12.4,13.6,22,13.6s17.9-5.5,22-13.6h-0.9
			C67.7,68.7,59.7,73.8,50.5,73.8z"/>
		<path fill="#70431B" d="M50.5,26.2c9.2,0,17.1,5.2,21.1,12.8h0.9c-4.1-8-12.4-13.6-22-13.6s-17.9,5.5-22,13.6h0.9
			C33.4,31.3,41.3,26.2,50.5,26.2z"/>
		<path fill="#70431B" d="M50.4,75.2c-0.6,0-1.3,0-1.9-0.1c-0.4,0-0.7,0.2-0.7,0.6c0,0.4,0.2,0.7,0.6,0.7c0.7,0.1,1.3,0.1,2,0.1
			c0,0,0,0,0,0c0.4,0,0.6-0.3,0.6-0.6C51.1,75.5,50.8,75.3,50.4,75.2z"/>
		<path fill="#70431B" d="M59.1,73.8c-0.6,0.2-1.2,0.4-1.8,0.6c-0.3,0.1-0.5,0.5-0.5,0.8c0.1,0.3,0.3,0.5,0.6,0.5c0.1,0,0.1,0,0.2,0
			c0.6-0.2,1.3-0.4,1.9-0.6c0.3-0.1,0.5-0.5,0.4-0.8C59.8,73.8,59.4,73.6,59.1,73.8z"/>
		<path fill="#70431B" d="M63.1,71.9c-0.5,0.3-1.1,0.6-1.7,0.9c-0.3,0.2-0.5,0.5-0.3,0.9c0.1,0.2,0.3,0.4,0.6,0.4
			c0.1,0,0.2,0,0.3-0.1c0.6-0.3,1.2-0.6,1.8-0.9c0.3-0.2,0.4-0.6,0.2-0.9C63.8,71.8,63.4,71.7,63.1,71.9z"/>
		<path fill="#70431B" d="M46,74.9c-0.6-0.1-1.2-0.2-1.8-0.4c-0.3-0.1-0.7,0.1-0.8,0.5c-0.1,0.3,0.1,0.7,0.5,0.8
			c0.6,0.2,1.3,0.3,1.9,0.4c0,0,0.1,0,0.1,0c0.3,0,0.6-0.2,0.6-0.5C46.6,75.3,46.4,74.9,46,74.9z"/>
		<path fill="#70431B" d="M73.3,62.4c-0.3-0.2-0.7-0.1-0.9,0.2c-0.3,0.5-0.7,1.1-1,1.6c-0.2,0.3-0.1,0.7,0.2,0.9
			c0.1,0.1,0.2,0.1,0.4,0.1c0.2,0,0.4-0.1,0.5-0.3c0.4-0.5,0.7-1.1,1.1-1.7C73.7,63,73.6,62.6,73.3,62.4z"/>
		<path fill="#70431B" d="M69.8,66.3c-0.4,0.5-0.8,1-1.3,1.4c-0.3,0.3-0.2,0.7,0,0.9c0.1,0.1,0.3,0.2,0.5,0.2c0.2,0,0.3-0.1,0.5-0.2
			c0.5-0.5,0.9-1,1.3-1.5c0.2-0.3,0.2-0.7-0.1-0.9C70.5,66,70.1,66,69.8,66.3z"/>
		<path fill="#70431B" d="M66.7,69.4c-0.5,0.4-1,0.8-1.5,1.2c-0.3,0.2-0.4,0.6-0.1,0.9c0.1,0.2,0.3,0.3,0.5,0.3c0.1,0,0.3,0,0.4-0.1
			c0.5-0.4,1.1-0.8,1.6-1.2c0.3-0.2,0.3-0.6,0.1-0.9C67.4,69.2,67,69.1,66.7,69.4z"/>
		<path fill="#70431B" d="M54.8,74.9c-0.6,0.1-1.2,0.2-1.9,0.3c-0.4,0-0.6,0.4-0.6,0.7c0,0.3,0.3,0.6,0.6,0.6c0,0,0,0,0.1,0
			c0.7-0.1,1.3-0.2,2-0.3c0.4-0.1,0.6-0.4,0.5-0.7C55.5,75.1,55.2,74.8,54.8,74.9z"/>
		<path fill="#70431B" d="M74.6,38.8c-0.3-0.6-0.6-1.2-0.9-1.8c-0.2-0.3-0.6-0.4-0.9-0.2c-0.3,0.2-0.4,0.6-0.2,0.9
			c0.2,0.4,0.5,0.8,0.7,1.3h1.4C74.6,38.9,74.6,38.8,74.6,38.8z"/>
		<path fill="#70431B" d="M73.9,61.3c0.1,0,0.2,0.1,0.3,0.1c0.2,0,0.4-0.1,0.5-0.3h-1C73.7,61.1,73.7,61.2,73.9,61.3z"/>
		<path fill="#70431B" d="M27.3,38.6c-0.3-0.2-0.7,0-0.9,0.3c0,0,0,0,0,0.1h1.2C27.6,38.8,27.4,38.6,27.3,38.6z"/>
		<path fill="#70431B" d="M26.5,61.4c0.3,0.6,0.6,1.2,0.9,1.8c0.1,0.2,0.3,0.3,0.6,0.3c0.1,0,0.2,0,0.3-0.1c0.3-0.2,0.4-0.6,0.2-0.9
			c-0.3-0.5-0.5-0.9-0.8-1.4h-1.3C26.5,61.2,26.5,61.3,26.5,61.4z"/>
		<path fill="#70431B" d="M32.8,68c-0.3-0.3-0.7-0.2-0.9,0c-0.3,0.3-0.2,0.7,0,0.9c0.5,0.5,1,0.9,1.5,1.3c0.1,0.1,0.3,0.2,0.4,0.2
			c0.2,0,0.4-0.1,0.5-0.2c0.2-0.3,0.2-0.7-0.1-0.9C33.7,68.8,33.2,68.4,32.8,68z"/>
		<path fill="#70431B" d="M29.9,64.6c-0.2-0.3-0.6-0.4-0.9-0.2c-0.3,0.2-0.4,0.6-0.2,0.9c0.4,0.5,0.8,1.1,1.2,1.6
			c0.1,0.2,0.3,0.2,0.5,0.2c0.1,0,0.3,0,0.4-0.1c0.3-0.2,0.3-0.6,0.1-0.9C30.7,65.6,30.3,65.1,29.9,64.6z"/>
		<path fill="#70431B" d="M37.8,71.8c-0.5-0.3-1.1-0.7-1.6-1c-0.3-0.2-0.7-0.1-0.9,0.2c-0.2,0.3-0.1,0.7,0.2,0.9
			c0.5,0.4,1.1,0.7,1.7,1.1c0.1,0.1,0.2,0.1,0.3,0.1c0.2,0,0.4-0.1,0.6-0.3C38.2,72.4,38.1,72,37.8,71.8z"/>
		<path fill="#70431B" d="M41.8,73.7c-0.6-0.2-1.2-0.5-1.8-0.7c-0.3-0.2-0.7,0-0.9,0.3c-0.1,0.3,0,0.7,0.3,0.9
			c0.6,0.3,1.2,0.5,1.8,0.8c0.1,0,0.1,0,0.2,0c0.3,0,0.5-0.2,0.6-0.4C42.3,74.2,42.1,73.8,41.8,73.7z"/>
		<path fill="#70431B" d="M70.1,34c0.4,0.5,0.8,1,1.1,1.5c0.1,0.2,0.3,0.3,0.5,0.3c0.1,0,0.3,0,0.4-0.1c0.3-0.2,0.4-0.6,0.2-0.9
			c-0.4-0.5-0.8-1.1-1.2-1.6c-0.2-0.3-0.6-0.3-0.9-0.1C69.9,33.3,69.8,33.7,70.1,34z"/>
		<path fill="#70431B" d="M64.1,27.2c-0.3-0.2-0.7-0.1-0.9,0.2c-0.2,0.3-0.1,0.7,0.2,0.9c0.5,0.3,1.1,0.7,1.6,1
			c0.1,0.1,0.2,0.1,0.4,0.1c0.2,0,0.4-0.1,0.5-0.3c0.2-0.3,0.1-0.7-0.2-0.9C65.2,27.9,64.6,27.5,64.1,27.2z"/>
		<path fill="#70431B" d="M48.2,23.6c-0.7,0.1-1.3,0.1-2,0.2c-0.4,0.1-0.6,0.4-0.5,0.7c0.1,0.3,0.3,0.5,0.6,0.5c0,0,0.1,0,0.1,0
			c0.6-0.1,1.3-0.2,1.9-0.2c0.4,0,0.6-0.3,0.6-0.7C48.8,23.8,48.5,23.5,48.2,23.6z"/>
		<path fill="#70431B" d="M43.6,24.4c-0.6,0.2-1.3,0.4-1.9,0.6c-0.3,0.1-0.5,0.5-0.4,0.8c0.1,0.3,0.3,0.4,0.6,0.4c0.1,0,0.1,0,0.2,0
			c0.6-0.2,1.2-0.4,1.8-0.6c0.3-0.1,0.5-0.4,0.5-0.8C44.3,24.5,43.9,24.3,43.6,24.4z"/>
		<path fill="#70431B" d="M67.8,29.9c-0.3-0.2-0.7-0.2-0.9,0.1c-0.2,0.3-0.2,0.7,0.1,0.9c0.5,0.4,0.9,0.8,1.4,1.3
			c0.1,0.1,0.3,0.2,0.5,0.2c0.2,0,0.3-0.1,0.5-0.2c0.3-0.3,0.3-0.7,0-0.9C68.8,30.8,68.3,30.3,67.8,29.9z"/>
		<path fill="#70431B" d="M57.4,24.3c-0.6-0.2-1.3-0.3-1.9-0.4c-0.4-0.1-0.7,0.2-0.8,0.5c-0.1,0.4,0.2,0.7,0.5,0.8
			c0.6,0.1,1.2,0.3,1.8,0.4c0.1,0,0.1,0,0.2,0c0.3,0,0.5-0.2,0.6-0.5C57.9,24.8,57.7,24.4,57.4,24.3z"/>
		<path fill="#70431B" d="M39.2,26c-0.6,0.3-1.2,0.6-1.8,0.9c-0.3,0.2-0.4,0.6-0.2,0.9c0.1,0.2,0.3,0.3,0.6,0.3c0.1,0,0.2,0,0.3-0.1
			c0.5-0.3,1.1-0.6,1.7-0.9c0.3-0.2,0.5-0.5,0.3-0.9C39.9,26,39.6,25.8,39.2,26z"/>
		<path fill="#70431B" d="M61.7,25.9c-0.6-0.3-1.2-0.5-1.8-0.8c-0.3-0.1-0.7,0-0.8,0.4c-0.1,0.3,0,0.7,0.4,0.8
			c0.6,0.2,1.2,0.5,1.7,0.7c0.1,0,0.2,0.1,0.3,0.1c0.2,0,0.5-0.1,0.6-0.4C62.2,26.5,62,26.1,61.7,25.9z"/>
		<path fill="#70431B" d="M52.8,23.6c-0.7-0.1-1.3-0.1-2-0.1c-0.4,0-0.7,0.3-0.7,0.6c0,0.4,0.3,0.7,0.6,0.7c0.6,0,1.3,0,1.9,0.1
			c0,0,0,0,0.1,0c0.3,0,0.6-0.3,0.6-0.6C53.4,23.9,53.1,23.6,52.8,23.6z"/>
		<path fill="#70431B" d="M28.7,34.9c-0.4,0.5-0.7,1.1-1.1,1.7c-0.2,0.3-0.1,0.7,0.2,0.9c0.1,0.1,0.2,0.1,0.3,0.1
			c0.2,0,0.4-0.1,0.6-0.3c0.3-0.5,0.7-1.1,1-1.6c0.2-0.3,0.1-0.7-0.2-0.9C29.3,34.5,28.9,34.6,28.7,34.9z"/>
		<path fill="#70431B" d="M31.7,31.3c-0.5,0.5-0.9,1-1.3,1.5c-0.2,0.3-0.2,0.7,0.1,0.9c0.1,0.1,0.3,0.2,0.4,0.2
			c0.2,0,0.4-0.1,0.5-0.2c0.4-0.5,0.8-0.9,1.3-1.4c0.3-0.3,0.3-0.7,0-0.9C32.3,31,31.9,31,31.7,31.3z"/>
		<path fill="#70431B" d="M35.2,28.3c-0.5,0.4-1.1,0.8-1.6,1.2c-0.3,0.2-0.3,0.6-0.1,0.9c0.1,0.2,0.3,0.2,0.5,0.2
			c0.1,0,0.3,0,0.4-0.1c0.5-0.4,1-0.8,1.5-1.1c0.3-0.2,0.4-0.6,0.2-0.9C35.9,28.2,35.5,28.1,35.2,28.3z"/>
		<path fill="#70431B" d="M50.5,22.2c11.4,0,21.3,6.9,25.5,16.8h2.3C74,27.9,63.1,20,50.5,20s-23.4,7.8-27.9,18.9H25
			C29.3,29.1,39.1,22.2,50.5,22.2z"/>
		<path fill="#70431B" d="M50.5,77.8c-11.4,0-21.3-6.9-25.5-16.8h-2.3C27.1,72.1,37.9,80,50.5,80S74,72.1,78.4,61.1h-2.3
			C71.8,70.9,61.9,77.8,50.5,77.8z"/>
		<path fill="#70431B" d="M26.8,60.5c-0.2,0.1-0.3,0.3-0.4,0.5h1.3c0-0.1-0.1-0.2-0.1-0.2C27.5,60.5,27.2,60.4,26.8,60.5z"/>
		<path fill="#70431B" d="M74,39.7c0.1,0,0.2,0,0.3-0.1c0.3-0.1,0.4-0.4,0.3-0.7h-1.4c0.1,0.1,0.1,0.3,0.2,0.4
			C73.5,39.6,73.8,39.7,74,39.7z"/>
	</g>
	<g>
		<g>
			<path fill="#931B37" d="M2.7,54.2H1.1c-0.4,0-0.7,0-0.8,0c0,0,0-0.1,0.1-0.2c0.1-0.1,0.1-0.1,0.1-0.2c0.2-0.2,0.4-0.4,0.4-0.8
				c0,0,0-0.3,0-1.1c0-0.4,0-1.6,0-3.7c0-0.1,0-0.4,0-0.8c0-0.4,0-0.7,0-0.9c0-0.7-0.1-1.3-0.2-1.7c0-0.1-0.1-0.2-0.3-0.4
				c0-0.1,0.1-0.1,0.3-0.1c0,0,0.1,0,0.2,0c0.1,0,0.1,0,0.2,0h2c0.1,0,0.2,0,0.2,0c0.1,0,0.1,0,0.1,0.1c0,0-0.1,0.1-0.2,0.3
				C3.1,45.2,3,46,3,47.5c0,0.3,0,0.9,0,1.8c0,0.8,0,1.5,0,1.9c0,0.1,0,0.3,0,0.7c0,0.3,0,0.5,0,0.7c0,0.5,0.1,0.8,0.3,1.1
				c0,0,0.1,0.1,0.1,0.2c0.1,0.1,0.1,0.2,0.1,0.2C3.4,54.2,3.2,54.2,2.7,54.2z M4.1,54.4c0,0.1,0,0.1,0,0.2c0.1,0-0.9,0-2.9,0
				c0,0,0,0-0.1,0s-0.1,0-0.1,0c-0.1,0-0.1,0-0.1-0.1c0-0.1,0.1-0.1,0.2-0.1c0,0,0.1,0,0.2,0c0.1,0,0.1,0,0.1,0c0.2,0,0.7,0,1.3,0
				c0.5,0,1,0,1.3,0c0-0.1-0.1-0.3-0.3-0.5c-0.2-0.2-0.3-0.4-0.3-0.5C3.2,53,3.2,52.6,3.2,52c0,0,0,0,0,0c0,0,0,0,0-0.1
				c0-0.2,0-0.8,0-2c0-0.9,0-1.6,0.1-2.1c0.1-1.4,0.1-2.1,0.1-2.1c0.1-0.4,0.1-0.7,0.3-0.8c0.1,0,0.2,0,0.1,0.1c0,0,0,0.1-0.1,0.2
				c0,0.1-0.1,0.1-0.1,0.1c-0.1,0.3-0.2,0.8-0.2,1.6c-0.1,3-0.1,4.8-0.1,5.5c0,0.8,0.3,1.5,0.8,1.9C4.1,54.2,4.1,54.3,4.1,54.4z"/>
			<path fill="#931B37" d="M9.9,48.5c0.1-1.1,0.1-1.9,0-2.3c-0.1-0.7-0.2-1.1-0.3-1.3c-0.2-0.3-0.4-0.4-0.4-0.4
				c0-0.1,0.2-0.1,0.6-0.1c0.1,0,0.3,0,0.5,0c0.2,0,0.3,0,0.3,0c0.2,0,0.5,0,0.9,0c0.4,0,0.7,0,0.8,0c0,0-0.1,0.2-0.3,0.4
				c-0.1,0.3-0.2,0.9-0.2,1.9c0,0.7,0,1.5,0,2.4c0,1.1,0,1.9,0,2.4c0,1.1,0,1.8,0.1,2.1c0.1,0.4,0.2,0.5,0.3,0.5c0,0-0.3,0-0.7,0
				c-1.1,0-1.6,0-1.6,0c0,0-0.2-0.5-0.6-1.6c-0.2-0.6-0.6-1.4-1-2.4c-0.5-1.2-0.9-2-1.1-2.4c-0.1,2-0.1,3.6-0.1,4.9
				c0,0.5,0.1,1,0.4,1.3c0,0,0,0,0.1,0.1c0,0,0.1,0,0.1,0.1c0,0.1,0.1,0.1,0,0.2c0,0,0,0.1-0.1,0.1c-0.1,0-0.1,0-0.1,0
				c-0.1,0-0.5,0-0.9,0c-0.5,0-0.9,0-1.1,0c-0.6,0-0.9,0-0.9,0C4.8,53.7,5,53.4,5,53.3c0.1-0.2,0.1-0.9,0-1.9c0-0.3,0-1.1,0-2.3
				c0-0.3,0-1,0-2.2c0-0.6,0-1,0-1.1c0-0.4-0.1-0.7-0.3-0.9c-0.2-0.2-0.3-0.3-0.3-0.3c0-0.1,0.1-0.1,0.2-0.1c0.1,0,0.2,0,0.3,0
				c0,0,0.5,0,1.6,0.1l0.5,0c0,0,0.2,0.3,0.4,0.8c0.3,0.6,0.7,1.6,1.2,2.8c0.5,1.3,0.9,2.2,1.2,2.8C9.8,49.6,9.8,48.8,9.9,48.5z
				 M7.4,48.9c0,0,0,0,0,0.2c0,0.1,0,0.3,0,0.6c0,0.3,0,0.5,0,0.6c0,1,0,1.9,0.1,2.6c0.1,0.5,0.2,0.8,0.5,1.1c0,0,0.1,0.1,0.1,0.1
				c0.1,0,0.1,0.1,0.1,0.1c0,0,0,0,0,0c0,0,0,0,0,0c0,0,0,0,0,0c0,0,0,0,0,0c0,0,0,0.1,0,0.1c0,0.1-0.1,0.1-0.2,0.1c0,0-0.1,0-0.2,0
				c-0.1,0-0.2,0-0.2,0c-0.3,0-1.1,0-2.3,0c0,0-0.1,0-0.1,0c-0.1,0-0.1,0-0.1,0c-0.1,0-0.1,0-0.2-0.1c0-0.1,0.1-0.1,0.2-0.1
				c0,0,0.1,0,0.2,0c0.1,0,0.1,0,0.2,0c0.2,0,0.6,0,1.2,0c0.6,0,1,0,1.2,0c0,0-0.1-0.1-0.2-0.3c-0.1-0.2-0.2-0.3-0.3-0.3
				c-0.2-0.5-0.3-1.2-0.3-2.3c0-1.6,0.1-2.5,0.1-2.6c0,0,0-0.1,0.1-0.1C7.3,48.8,7.4,48.8,7.4,48.9z M9.5,49.9
				C9.5,49.9,9.5,49.9,9.5,49.9c0-0.1,0-0.2,0-0.2c0,0-0.3-0.8-1-2.3c-0.2-0.6-0.4-1-0.6-1.3c-0.2-0.5-0.4-1-0.5-1.3c0,0,0,0,0,0
				c0,0,0,0,0,0c0,0,0,0,0,0c0,0,0,0,0,0c0.1,0,0.1,0.1,0.2,0.3c0,0,0,0.1,0.1,0.2c0,0.1,0.1,0.1,0.1,0.2c0.1,0.1,0.2,0.4,0.4,0.8
				c0.2,0.3,0.3,0.6,0.4,0.8c0.4,1.1,0.7,1.9,1,2.5c0,0,0,0.1,0,0.1c0,0,0.1,0.1,0.1,0.1c0,0.1,0,0.2,0,0.2C9.6,50,9.6,50,9.5,49.9z
				 M12.6,45c-0.1,0.1-0.1,0.2-0.1,0.1c-0.1,0.3-0.2,0.8-0.2,1.7c0,0.2,0,0.4,0,0.8c0,0.4,0,0.7,0,0.8c0,1-0.1,2.2-0.1,3.8
				c0,0.3,0,0.7,0.1,1.4c0,0.1,0.1,0.3,0.2,0.5c0.1,0.2,0.2,0.4,0.2,0.5c-0.3,0.1-0.7,0.1-1.2,0.1c-0.8,0-1.2-0.1-1.3-0.1
				c0-0.1,0-0.2,0.1-0.2c0,0,0.1,0,0.1,0c0.1,0,0.1,0,0.1,0c0.2,0,0.5,0,0.9,0c0.5,0,0.8,0,1,0c-0.3-0.3-0.5-0.9-0.5-1.7
				c0-0.1,0-0.4,0-0.6c0-0.3,0-0.5,0-0.6c0-0.7,0-2.2,0.1-4.6c0-1,0.1-1.6,0.4-2c0-0.1,0.1-0.1,0.2-0.1C12.6,44.8,12.6,44.9,12.6,45
				z"/>
			<path fill="#931B37" d="M15.4,54.2h-1.6c-0.4,0-0.7,0-0.8,0c0,0,0-0.1,0.1-0.2c0.1-0.1,0.1-0.1,0.1-0.2c0.2-0.2,0.4-0.4,0.4-0.8
				c0,0,0-0.3,0-1.1c0-0.4,0-1.6,0-3.7c0-0.1,0-0.4,0-0.8c0-0.4,0-0.7,0-0.9c0-0.7-0.1-1.3-0.2-1.7c0-0.1-0.1-0.2-0.3-0.4
				c0-0.1,0.1-0.1,0.3-0.1c0,0,0.1,0,0.2,0c0.1,0,0.1,0,0.2,0h2c0.1,0,0.2,0,0.2,0c0.1,0,0.1,0,0.1,0.1c0,0-0.1,0.1-0.2,0.3
				c-0.2,0.3-0.3,1.2-0.3,2.7c0,0.3,0,0.9,0,1.8c0,0.8,0,1.5,0,1.9c0,0.1,0,0.3,0,0.7c0,0.3,0,0.5,0,0.7c0,0.5,0.1,0.8,0.3,1.1
				c0,0,0.1,0.1,0.1,0.2c0.1,0.1,0.1,0.2,0.1,0.2C16.1,54.2,15.8,54.2,15.4,54.2z M16.7,54.4c0,0.1,0,0.1,0,0.2c0.1,0-0.9,0-2.9,0
				c0,0,0,0-0.1,0s-0.1,0-0.1,0c-0.1,0-0.1,0-0.1-0.1c0-0.1,0.1-0.1,0.2-0.1c0,0,0.1,0,0.2,0c0.1,0,0.1,0,0.1,0c0.2,0,0.7,0,1.3,0
				c0.5,0,1,0,1.3,0c0-0.1-0.1-0.3-0.3-0.5c-0.2-0.2-0.3-0.4-0.3-0.5c-0.1-0.3-0.2-0.7-0.2-1.3c0,0,0,0,0,0c0,0,0,0,0-0.1
				c0-0.2,0-0.8,0-2c0-0.9,0-1.6,0.1-2.1c0.1-1.4,0.1-2.1,0.1-2.1c0.1-0.4,0.1-0.7,0.3-0.8c0.1,0,0.2,0,0.1,0.1c0,0,0,0.1-0.1,0.2
				c0,0.1-0.1,0.1-0.1,0.1C16.1,45.5,16,46,16,46.8c-0.1,3-0.1,4.8-0.1,5.5c0,0.8,0.3,1.5,0.8,1.9C16.7,54.2,16.7,54.3,16.7,54.4z"
				/>
			<path fill="#931B37" d="M24.1,47.3c0-0.1,0-0.1,0-0.2c-0.1,0-0.1-0.1-0.2-0.2c-0.1-0.1-0.2-0.2-0.3-0.2c-0.4-0.2-0.8-0.4-1.3-0.4
				c-0.5,0-1,0-1.4,0.2c-0.6,0.3-1.1,0.7-1.4,1.2c-0.1,0.2-0.2,0.5-0.3,0.9C19,49,19,49.3,19,49.6c0,0.4,0.1,0.8,0.1,0.9
				c0.2,0.7,0.7,1.2,1.3,1.5c0.5,0.3,1.2,0.4,1.9,0.4c0.9-0.1,1.5-0.5,1.9-1.1c0.1-0.1,0.1-0.2,0.1-0.4c0-0.3,0-0.5,0-0.5
				c0.2,0.1,0.6,0.3,1,0.6c0.4,0.3,0.7,0.5,1,0.6c0,0.2-0.3,0.6-1,1.3c-0.3,0.3-0.8,0.6-1.3,0.8c-0.7,0.3-1.4,0.4-2,0.4
				c-0.5,0-1-0.1-1.5-0.3c-0.8-0.3-1.5-0.7-2.1-1.3c-0.4-0.4-0.8-0.9-1-1.5c-0.1-0.3-0.2-0.7-0.2-1.3c0-1,0.2-1.8,0.6-2.6
				c0.4-0.7,1-1.3,1.7-1.8c0.9-0.6,1.8-0.9,2.6-0.9c0.2,0,0.5,0,0.9,0.1c0.6,0.1,1.2,0.3,1.7,0.7c0.5,0.3,0.9,0.7,1.2,1.1
				c0.3,0.3,0.4,0.5,0.4,0.6c0,0-0.2,0.1-0.5,0.3c-0.1,0-0.2,0.1-0.5,0.3c-0.2,0.1-0.3,0.2-0.5,0.3c0,0-0.1,0-0.1,0.1
				c-0.1,0-0.1,0.1-0.1,0.1c-0.1,0.1-0.2,0.1-0.3,0.1c-0.1,0-0.1-0.1,0-0.2c0-0.1,0.1-0.2,0.1-0.3C24.2,47.4,24.1,47.4,24.1,47.3z
				 M23.5,47.1C23.5,47.1,23.5,47.1,23.5,47.1C23.5,47,23.4,47,23.4,47c-0.3-0.2-0.6-0.3-1-0.3c-0.7,0-1.4,0.1-2.1,0.6
				c-0.3,0.3-0.6,0.6-0.7,0.9c0,0-0.1,0.3-0.2,0.7c-0.1,0.3-0.1,0.6-0.1,1c0,0.4,0.1,0.6,0.2,0.8c0.1,0.3,0.2,0.4,0.2,0.4
				c-0.2,0-0.4-0.2-0.5-0.6c0,0,0-0.1,0-0.1c0-0.1,0-0.2,0-0.3c0-0.3,0-0.6,0-0.9c0.1-0.9,0.5-1.6,1.3-2.1c0.7-0.3,1.3-0.5,1.9-0.4
				c0.1,0,0.3,0,0.5,0.1c0.2,0.1,0.4,0.1,0.4,0.1c0,0,0.1,0.1,0.3,0.2c0.1,0.1,0.2,0.1,0.2,0.2C23.7,47.2,23.6,47.2,23.5,47.1z
				 M23.7,54.3h-0.2c-0.7,0.2-1.4,0.3-2.2,0.1c-0.3,0-0.5-0.1-0.6-0.2c0,0,0.2,0,0.4,0c0.5,0.1,0.9,0.1,1.3,0.1
				c1.1,0,2.2-0.5,3.3-1.4c0.2-0.1,0.4-0.4,0.6-0.6c0.1-0.2,0.2-0.2,0.2-0.2c0,0,0,0,0,0c0,0,0,0,0,0c0,0,0.1,0,0.2,0.1
				C26.1,52.9,25.1,53.6,23.7,54.3z M25.8,47.4c-0.3,0.2-0.6,0.3-0.9,0.5c0,0-0.1,0-0.1,0.1c-0.1,0-0.1,0.1-0.1,0.1
				c-0.1,0-0.2,0.1-0.2,0c0,0,0,0,0,0c0.1-0.1,0.2-0.2,0.4-0.2c0.2-0.1,0.4-0.2,0.4-0.2c0.3-0.2,0.5-0.3,0.8-0.5c0.1,0,0.1,0,0.1,0
				c0,0,0,0,0,0.1C26.1,47.2,26,47.3,25.8,47.4z"/>
			<path fill="#931B37" d="M29.3,54.2h-1.6c-0.4,0-0.7,0-0.8,0c0,0,0-0.1,0.1-0.2c0.1-0.1,0.1-0.1,0.1-0.2c0.2-0.2,0.4-0.4,0.4-0.8
				c0,0,0-0.3,0-1.1c0-0.4,0-1.6,0-3.7c0-0.1,0-0.4,0-0.8c0-0.4,0-0.7,0-0.9c0-0.7-0.1-1.3-0.2-1.7c0-0.1-0.1-0.2-0.3-0.4
				c0-0.1,0.1-0.1,0.3-0.1c0,0,0.1,0,0.2,0c0.1,0,0.1,0,0.2,0h2c0.1,0,0.2,0,0.2,0c0.1,0,0.1,0,0.1,0.1c0,0-0.1,0.1-0.2,0.3
				c-0.2,0.3-0.3,1.2-0.3,2.7c0,0.3,0,0.9,0,1.8c0,0.8,0,1.5,0,1.9c0,0.1,0,0.3,0,0.7c0,0.3,0,0.5,0,0.7c0,0.5,0.1,0.8,0.3,1.1
				c0,0,0.1,0.1,0.1,0.2c0.1,0.1,0.1,0.2,0.1,0.2C30,54.2,29.7,54.2,29.3,54.2z M30.6,54.4c0,0.1,0,0.1,0,0.2c0.1,0-0.9,0-2.9,0
				c0,0,0,0-0.1,0s-0.1,0-0.1,0c-0.1,0-0.1,0-0.1-0.1c0-0.1,0.1-0.1,0.2-0.1c0,0,0.1,0,0.2,0c0.1,0,0.1,0,0.1,0c0.2,0,0.7,0,1.3,0
				c0.5,0,1,0,1.3,0c0-0.1-0.1-0.3-0.3-0.5c-0.2-0.2-0.3-0.4-0.3-0.5c-0.1-0.3-0.2-0.7-0.2-1.3c0,0,0,0,0,0c0,0,0,0,0-0.1
				c0-0.2,0-0.8,0-2c0-0.9,0-1.6,0.1-2.1c0.1-1.4,0.1-2.1,0.1-2.1c0.1-0.4,0.1-0.7,0.3-0.8c0.1,0,0.2,0,0.1,0.1c0,0,0,0.1-0.1,0.2
				c0,0.1-0.1,0.1-0.1,0.1c-0.1,0.3-0.2,0.8-0.2,1.6c-0.1,3-0.1,4.8-0.1,5.5c0,0.8,0.3,1.5,0.8,1.9C30.6,54.2,30.6,54.3,30.6,54.4z"
				/>
			<path fill="#931B37" d="M36.5,44.7c-0.1,0.1-0.1,0.1-0.2,0.2c-0.1,0.2,0,0.6,0.2,1.2c0.1,0.4,0.3,0.9,0.6,1.7
				c0.2,0.7,0.4,1.3,0.6,1.6c0.5,1.3,0.7,2,0.8,2.2c0.4,1.1,0.6,1.9,0.8,2.1c0.2,0.3,0.3,0.4,0.3,0.4c0,0-0.1,0-0.1,0
				c-0.1,0-0.1,0-0.2,0c-0.3,0-0.8,0-1.4,0c-0.6,0-1,0-1.3,0c0-0.1,0.1-0.2,0.2-0.3c0-0.1,0-0.2,0.1-0.4c0-0.1,0-0.3,0-0.4
				c-0.1-0.4-0.3-0.9-0.5-1.3c-1.3,0-2.1,0-2.3,0c-0.4,1-0.5,1.6-0.5,1.9c0,0.1,0.1,0.1,0.1,0.2c0.1,0.1,0.1,0.2,0.1,0.2
				c-1,0.1-1.9,0-2.9,0c0,0,0.1-0.1,0.2-0.2c0.1-0.1,0.2-0.2,0.2-0.2c0.1-0.2,0.4-1,0.9-2.2c0.2-0.5,0.4-1.1,0.6-2
				c0-0.1,0.2-0.6,0.4-1.5c0.2-0.6,0.3-1.1,0.4-1.5c0-0.1,0.1-0.2,0.1-0.4c0.1-0.2,0.1-0.3,0.1-0.4c0.1-0.3,0.1-0.6,0-0.8
				c0-0.1-0.1-0.1-0.1-0.2c-0.1-0.1-0.1-0.1-0.2-0.2c0-0.1,0.1-0.1,0.4-0.1c0.2,0,0.5,0,1.1,0c0.4,0,0.8,0,1.1,0c0,0,0.1,0,0.1,0
				c0,0,0.1,0,0.1,0c0.1,0,0.1,0,0.2,0.1C36.7,44.5,36.6,44.6,36.5,44.7z M35.9,52.2c-0.1,0-0.3,0-0.8,0c-0.3,0-0.6,0-0.7,0
				c-0.3,0.7-0.4,1.1-0.4,1.4c0,0.1,0.1,0.3,0.2,0.5c0.1,0.2,0.2,0.3,0.1,0.4c-0.2,0-0.7,0.1-1.2,0.1c-0.8,0-1.2,0-1.4,0
				c0,0-0.1,0-0.1,0s-0.1,0-0.1,0c-0.1,0-0.2,0-0.2-0.1c0-0.1,0.1-0.2,0.2-0.2c0,0,0.1,0,0.3,0c0.3,0,0.7,0,1.2,0c0.6,0,1,0,1.1,0
				c0-0.1-0.1-0.2-0.2-0.4c-0.1-0.2-0.2-0.3-0.2-0.4c0-0.2,0-0.5,0.1-0.8c0,0,0.1-0.2,0.2-0.4c0.1-0.1,0.1-0.3,0.1-0.4
				c0.2,0,0.4,0,0.7,0c0.4,0,0.6,0,0.7,0c0,0,0.1,0,0.2,0c0.1,0,0.1,0,0.2,0c0.1,0,0.2,0,0.3,0.1C36.3,52.1,36.2,52.2,35.9,52.2z
				 M35.4,50.7c0.3,0,0.5,0,0.7,0c-0.5-1.1-0.7-1.7-0.8-1.8c-0.1,0.2-0.2,0.5-0.4,0.9c-0.2,0.4-0.3,0.7-0.3,0.9
				C34.7,50.7,34.9,50.7,35.4,50.7z M35.1,50c0,0,0,0.1-0.1,0.2c0,0.1,0,0.1-0.1,0.2c-0.1,0.1-0.1,0.2-0.2,0.3c0,0,0-0.1-0.1-0.1
				c0.2-0.6,0.4-1,0.5-1.2c0,0,0.1,0,0.1,0C35.4,49.5,35.3,49.7,35.1,50z M37,44.9c-0.1,0.1-0.1,0.2-0.1,0.2c0,0.1,0,0.3,0,0.5
				c0.1,0.3,0.5,1.6,1.2,3.9c0.1,0.4,0.3,1,0.7,1.9c0.3,0.9,0.6,1.6,0.8,1.9c0.1,0.2,0.2,0.4,0.3,0.5c0,0,0.1,0.1,0.1,0.1
				c0.1,0.1,0.1,0.1,0.2,0.2c0.1,0.1,0.1,0.2,0,0.3c-0.6,0.1-1.4,0.1-2.3,0.1c-0.4,0-0.6,0-0.7-0.1c0-0.1,0.1-0.1,0.3-0.1
				c0,0,0.1,0,0.2,0c0.1,0,0.1,0,0.2,0c1.5,0,2.3,0,2.4,0c0,0-0.1-0.1-0.4-0.5c0,0-0.1-0.3-0.3-0.6c0-0.1-0.1-0.2-0.2-0.3
				c-0.1-0.1-0.1-0.2-0.1-0.3c-0.1-0.2-0.2-0.5-0.3-0.9c-0.1-0.4-0.2-0.7-0.3-0.9c-0.4-1.1-0.6-1.7-0.7-1.8c0-0.1-0.1-0.4-0.3-0.9
				c-0.1-0.4-0.2-0.7-0.3-1c-0.2-0.6-0.3-0.9-0.3-1c-0.1-0.4-0.2-0.6-0.2-0.8c0-0.3,0-0.5,0.2-0.7c0,0,0.1,0,0.1,0c0,0,0.1,0,0.1,0
				C37.1,44.7,37.1,44.8,37,44.9z"/>
			<path fill="#931B37" d="M46.9,51.1c0.3,0.9,0.5,1.5,0.8,1.7c0.3,0.4,0.8,0.6,1.3,0.7c0,0.3,0,0.6,0,0.8c-0.6,0.1-1.1,0-1.5-0.1
				c-0.7-0.2-1.3-0.8-1.8-1.6c-0.1-0.2-0.3-0.6-0.6-1.1c-0.3-0.5-0.5-0.8-0.6-1.1c-0.5-0.2-1-0.3-1.4-0.3c0,2.2,0.1,3.4,0.1,3.4
				c0,0.1,0.1,0.2,0.2,0.3c0.1,0.1,0.2,0.2,0.2,0.3c-0.5,0-1.5,0-3,0c0-0.1,0-0.1,0.1-0.2c0.1-0.1,0.2-0.2,0.2-0.2
				c0,0,0-0.1,0.1-0.2c0-0.1,0.1-0.1,0.1-0.2c0.1-0.4,0.2-1.5,0.2-3.2c0-1,0-1.8,0-2.6c0,0,0-0.3,0-0.7c0-0.3,0-0.5,0-0.7
				c0-0.5-0.1-0.9-0.2-1.2c0,0-0.1-0.1-0.4-0.5c0.1-0.1,0.2-0.1,0.4-0.1c0,0,0.1,0,0.5,0c0.3,0,1.1,0,2.4,0c1,0,1.8,0,2.4,0
				c0.7,0,1.3,0.2,1.8,0.6c0.5,0.3,0.7,0.5,0.9,0.8c0.1,0.3,0.2,0.7,0.1,1.2c0,0.5-0.1,0.9-0.3,1.2c-0.2,0.3-0.5,0.6-1.1,0.9
				c-0.5,0.2-1,0.4-1.5,0.5C46.4,49.8,46.7,50.3,46.9,51.1z M43.4,50.3C43.4,50.3,43.5,50.3,43.4,50.3c-0.1,1.8,0,3.1,0.4,3.8
				c0.2,0.3,0.2,0.4,0.2,0.4c0,0.1-0.3,0.2-0.8,0.2c-0.2,0-0.4,0-0.6,0c-0.2,0-0.4,0-0.4,0c-0.8,0-1.3,0-1.3-0.1
				c0-0.1,0.1-0.1,0.2-0.1c0,0,0.1,0,0.2,0c0.1,0,0.1,0,0.2,0c0.3,0,0.7,0,1.2,0c0.6,0,1,0,1.2,0c-0.1-0.3-0.2-0.5-0.3-0.6
				c-0.2-0.4-0.3-1-0.3-1.7c0-0.2,0-0.5,0-0.9c0-0.4,0-0.7,0-0.8C43.3,50.3,43.3,50.3,43.4,50.3C43.3,50.3,43.3,50.3,43.4,50.3
				C43.4,50.2,43.4,50.3,43.4,50.3z M46.8,46.6c-0.2-0.2-0.4-0.3-0.7-0.3c-0.3-0.1-0.8-0.1-1.5-0.1c-0.8,0-1.3,0-1.4,0
				c0,0.2-0.1,0.9,0,2.2c0.2,0,0.6,0,1.2,0c0.5,0,0.9,0,1.2-0.1c0.9-0.1,1.4-0.5,1.5-1C47,47,47,46.8,46.8,46.6z M46.4,46.7
				c-0.2-0.1-0.2-0.1-0.2-0.1c-0.3-0.1-0.8-0.2-1.3-0.1c-0.2,0-0.4,0-0.7,0c-0.3,0-0.5,0-0.6,0c-0.1,1.1-0.1,1.6-0.1,1.6
				c-0.1,0-0.1-0.1-0.1-0.2c0,0,0-0.1,0-0.1c0,0,0-0.1,0-0.1c0-0.4,0-0.9,0-1.4c0.9-0.1,1.5-0.1,1.8-0.1c0.8,0,1.3,0.2,1.5,0.5
				C46.6,46.8,46.5,46.7,46.4,46.7z M49.2,53.2C49.2,53.2,49.2,53.2,49.2,53.2c-0.7-0.1-1.2-0.4-1.6-1.1c0,0-0.2-0.6-0.8-2
				c0,0-0.1-0.1-0.2-0.3c-0.1-0.1-0.1-0.2-0.1-0.3c0.7-0.1,1.3-0.4,1.7-0.8c0.5-0.4,0.7-1,0.8-1.6c0-0.5,0-0.7,0-0.7
				c0.1,0.1,0.2,0.4,0.1,0.8c0,0.6-0.3,1.2-0.8,1.7c-0.5,0.5-1,0.7-1.7,0.8c0,0.1,0.2,0.4,0.4,1.1c0.2,0.4,0.3,0.8,0.4,1
				c0.4,0.7,0.9,1.1,1.6,1.3C49.2,53.1,49.2,53.1,49.2,53.2C49.2,53.2,49.2,53.2,49.2,53.2C49.2,53.2,49.2,53.2,49.2,53.2z
				 M49.4,53.7c0,0.4,0,0.6,0,0.7c-0.1,0-0.1,0.1-0.1,0.1c0,0,0,0,0,0.1c0,0,0,0.1,0,0.1c-0.8,0-1.4-0.1-1.5-0.2c0.2,0,0.4,0,0.7,0
				c0.3,0,0.6,0,0.8,0c0-0.1,0-0.2,0.1-0.6c0-0.4,0-0.6,0.1-0.8C49.4,53.2,49.4,53.4,49.4,53.7z"/>
			<path fill="#931B37" d="M59.2,47.4c-0.4,0.2-0.6,0.3-0.8,0.4c-0.2,0.1-0.3,0.1-0.3,0.2c-0.2-0.1-0.3-0.1-0.3,0
				c0.1-0.1,0.2-0.3,0.2-0.5c0,0,0,0,0-0.1c0-0.3-0.1-0.7-0.5-1.2c-0.3-0.2-0.8-0.3-1.3-0.2c-0.5,0.1-0.9,0.4-1.1,0.8
				C55,47,55,47.1,55,47.1c0,0.1,0,0.2-0.1,0.2c0,0.2,0.1,0.4,0.1,0.4c0,0.1,0.2,0.3,0.3,0.4c0.2,0.1,0.6,0.3,1.3,0.4
				c0.8,0.1,1.3,0.2,1.4,0.3c0.7,0.4,1.2,0.7,1.5,1.1c0.4,0.5,0.5,1.1,0.5,1.7c0,0.5-0.3,1-0.8,1.5c-0.2,0.3-0.5,0.4-0.7,0.6
				c-0.7,0.4-1.5,0.5-2.3,0.5c-0.6-0.1-1.2-0.2-2-0.6c-0.6-0.4-1-0.9-1.3-1.5c-0.1-0.2-0.1-0.3-0.1-0.4c0.1,0,0.3-0.1,0.5-0.3
				c0.2-0.1,0.4-0.2,0.5-0.3c0,0,0.2-0.1,0.5-0.3c0,0,0.1,0,0.1-0.1c0,0,0.1-0.1,0.1-0.1c0.1,0,0.2-0.1,0.3,0c0,0.1,0,0.1-0.1,0.3
				c0,0.1-0.1,0.2,0,0.3c0.1,0.3,0.3,0.6,0.7,0.8c0.3,0.2,0.5,0.3,0.8,0.3c0.3,0,0.4,0,0.4,0c1-0.2,1.5-0.5,1.6-1
				c0-0.4-0.1-0.7-0.3-1c-0.2-0.2-0.5-0.3-0.9-0.4c-1.8-0.4-2.7-0.6-2.6-0.6c-0.3-0.1-0.5-0.3-0.7-0.5c-0.2-0.2-0.4-0.5-0.5-0.7
				c-0.1-0.2-0.1-0.5-0.1-0.8c0-0.4,0-0.7,0.1-0.9c0.2-0.7,0.5-1.1,1-1.4c0,0,0,0,0.1-0.1c0,0,0.1,0,0.1-0.1
				c0.7-0.4,1.5-0.6,2.3-0.6c0.6,0,1.1,0.1,1.5,0.3c0.9,0.4,1.5,1.2,1.9,2.3C59.9,47,59.7,47.2,59.2,47.4z M57.8,50.9
				c-0.2-0.3-0.8-0.5-1.6-0.6c-1.2-0.2-2-0.5-2.5-0.9c0,0,0,0,0-0.1c0,0,0-0.1,0-0.1c0,0,0,0,0,0h0c0.3,0.4,0.9,0.6,2,0.7
				c1.1,0.1,1.7,0.4,2.1,0.7c0.2,0.2,0.3,0.4,0.2,0.5C58,51.1,57.9,51,57.8,50.9z M55.9,46.5c-0.3,0.2-0.5,0.4-0.5,0.7
				c0,0.3,0,0.5,0.2,0.7c0,0,0,0.1-0.1,0.1c0,0-0.1,0-0.2,0c0-0.1-0.1-0.2-0.1-0.2c0-0.1,0-0.2,0-0.3c0-0.2,0-0.3,0-0.4
				c0-0.2,0.2-0.4,0.4-0.6c0.2-0.2,0.4-0.3,0.6-0.4c0.1,0,0.2-0.1,0.3-0.1c0.2,0,0.3,0,0.3,0.2C56.5,46.3,56.2,46.4,55.9,46.5z
				 M56.3,54.4c0,0,0.1,0,0.1,0c0.1,0,0.1,0,0.1,0c1.1,0,1.9-0.3,2.4-0.7c0.6-0.5,1-1.2,1.2-2c0,0,0-0.2,0-0.4c0-0.2,0-0.3-0.1-0.4
				v0c0.1,0,0.2,0,0.2,0.1c0,0.1,0,0.2,0,0.4c0,0.4-0.2,0.9-0.5,1.4c0,0-0.1,0.1-0.1,0.2c0,0.1-0.1,0.2-0.1,0.2c0,0,0,0-0.1,0
				c0,0-0.1,0-0.1,0.1c0,0,0,0.1-0.1,0.1c0,0,0,0.1,0,0.1c-0.3,0.3-0.8,0.6-1.4,0.8c-0.7,0.2-1.3,0.3-1.8,0.2c-0.1,0-0.2,0-0.2-0.1
				C56.1,54.4,56.2,54.3,56.3,54.4z M60,47.3c0,0,0,0-0.1,0.1c-0.1,0-0.1,0-0.1,0c-0.1,0-0.3,0.2-0.8,0.4c-0.3,0.2-0.6,0.3-0.8,0.4
				c0,0,0,0-0.1,0c0-0.1,0.1-0.2,0.2-0.2c0.1-0.1,0.4-0.2,0.7-0.4c0.3-0.2,0.5-0.3,0.7-0.4l0,0c0,0,0,0,0,0
				C59.9,47.2,59.9,47.2,60,47.3C60,47.3,60,47.3,60,47.3z"/>
			<path fill="#931B37" d="M68.3,46.5c0,0-0.1,0-0.2,0c-0.1,0-0.2,0-0.3,0c0-0.1-0.1-0.3-0.2-0.4c-0.6,0-1.9,0-4.1,0
				c0,0.3,0,0.8,0,1.3c0,0.6,0,1.1,0,1.4c0.3,0.1,0.6,0.1,0.9,0c0.3-0.1,0.4-0.3,0.4-0.5c0,0,0.1,0,0.3,0c0.1,0,0.2,0,0.2,0
				c0,0.2,0,0.5-0.1,1c0,0.5,0,0.8,0,1c-0.2,0.1-0.3,0.1-0.4,0c0,0-0.1-0.1-0.2-0.2c-0.1-0.1-0.1-0.2-0.1-0.2c-0.1,0-0.3,0-0.5,0
				c-0.2,0-0.3,0-0.4,0c0,0.3-0.1,1.2-0.1,2.6c0.5,0.1,1.5,0.1,3.1,0.1l0.9,0c0.3,0,0.4-0.2,0.5-0.4c0.3,0,0.5,0.1,0.5,0.1
				c0,0.1-0.2,0.4-0.4,0.9c-0.2,0.4-0.3,0.7-0.3,1c-0.9,0.1-1.9,0.1-3.2,0c-0.4,0-1,0-1.8,0c-0.9,0-1.5,0-1.7,0
				c0-0.1,0.1-0.2,0.2-0.4c0.3-0.4,0.4-0.8,0.4-1.3c0.1-2.3,0.1-4.4,0.1-6.3c0-0.3-0.1-0.6-0.1-0.8c0-0.1-0.1-0.3-0.3-0.5
				c-0.2-0.2-0.3-0.3-0.3-0.4c2.9,0,5,0,6.4,0c0.2,0,0.4,0,0.4,0.1c0.1,0.1,0.2,0.4,0.3,0.9c0.2,0.6,0.3,0.9,0.3,1
				C68.3,46.5,68.3,46.5,68.3,46.5z M68.7,52.4c0.1,0.1,0.1,0.1,0,0.3c0,0,0,0.1-0.1,0.1c0,0.1-0.1,0.1-0.1,0.1
				c-0.3,0.8-0.5,1.4-0.7,1.6c0,0-2,0-5.9,0c0,0-0.1,0-0.1,0c-0.1,0-0.1,0-0.1,0c-0.1,0-0.2,0-0.2-0.1c0.2-0.1,0.6-0.1,1.2-0.1
				l1.3,0.1c0.4,0,1,0,1.8,0c0.9,0,1.5,0,1.9,0c0.1-0.2,0.3-0.6,0.4-1C68.5,52.9,68.6,52.5,68.7,52.4L68.7,52.4z M64.2,50.4
				c0,0-0.1,0-0.1,0c-0.1,0-0.1,0-0.2,0c0,0.1,0,0.2,0,0.3c0,0.2,0,0.3,0,0.3c0,0,0,0.3,0,0.8c0,0.3,0,0.5-0.1,0.6
				c0-0.2-0.1-0.6,0-1.1c0-0.6,0-1,0-1.1c0.1,0,0.2,0,0.4,0c0.1,0,0.2,0,0.2,0.1C64.4,50.3,64.3,50.4,64.2,50.4z M67.5,46.2
				c0,0.2,0.1,0.3,0.4,0.4c0.4,0.1,0.6,0.1,0.6,0.1c-0.1,0.1-0.2,0.1-0.4,0.1c-0.4,0-0.5,0-0.5,0c0,0,0-0.1-0.1-0.2
				c0-0.1-0.1-0.1-0.1-0.2c-1.6,0-2.7,0-3.4,0c0,0.3-0.1,0.8-0.1,1.5c0,0,0,0.1,0,0.2c0,0.1,0,0.1,0,0.2c0,0.1,0,0.2-0.1,0.3
				c-0.1-0.3-0.1-0.7-0.1-1.2c0-0.7,0-1.1,0-1.2C64.7,46.2,66,46.2,67.5,46.2z M65.6,48.4c0,0.6,0,1.4-0.1,2.3c-0.1,0-0.2,0-0.4,0
				c-0.1,0-0.2,0-0.3,0c0-0.1,0.1-0.1,0.2-0.1c0.2,0,0.3,0,0.3,0c0-0.2,0.1-0.6,0.1-1.1C65.4,49,65.5,48.6,65.6,48.4L65.6,48.4z"/>
			<path fill="#931B37" d="M75.5,47.4c-0.4,0.2-0.6,0.3-0.8,0.4c-0.2,0.1-0.3,0.1-0.3,0.2c-0.2-0.1-0.3-0.1-0.3,0
				c0.1-0.1,0.2-0.3,0.2-0.5c0,0,0,0,0-0.1c0-0.3-0.1-0.7-0.5-1.2c-0.3-0.2-0.8-0.3-1.3-0.2c-0.5,0.1-0.9,0.4-1.1,0.8
				c-0.1,0.1-0.1,0.2-0.1,0.2c0,0.1,0,0.2-0.1,0.2c0,0.2,0.1,0.4,0.1,0.4c0,0.1,0.2,0.3,0.3,0.4c0.2,0.1,0.6,0.3,1.3,0.4
				c0.8,0.1,1.3,0.2,1.4,0.3c0.7,0.4,1.2,0.7,1.5,1.1c0.4,0.5,0.5,1.1,0.5,1.7c0,0.5-0.3,1-0.8,1.5c-0.2,0.3-0.5,0.4-0.7,0.6
				c-0.7,0.4-1.5,0.5-2.3,0.5c-0.6-0.1-1.2-0.2-2-0.6c-0.6-0.4-1-0.9-1.3-1.5c-0.1-0.2-0.1-0.3-0.1-0.4c0.1,0,0.3-0.1,0.5-0.3
				c0.2-0.1,0.4-0.2,0.5-0.3c0,0,0.2-0.1,0.5-0.3c0,0,0.1,0,0.1-0.1c0,0,0.1-0.1,0.1-0.1c0.1,0,0.2-0.1,0.3,0c0,0.1,0,0.1-0.1,0.3
				c0,0.1-0.1,0.2,0,0.3c0.1,0.3,0.3,0.6,0.7,0.8c0.3,0.2,0.5,0.3,0.8,0.3c0.3,0,0.4,0,0.4,0c1-0.2,1.5-0.5,1.6-1
				c0-0.4-0.1-0.7-0.3-1c-0.2-0.2-0.5-0.3-0.9-0.4c-1.8-0.4-2.7-0.6-2.6-0.6c-0.3-0.1-0.5-0.3-0.7-0.5c-0.2-0.2-0.4-0.5-0.5-0.7
				c-0.1-0.2-0.1-0.5-0.1-0.8c0-0.4,0-0.7,0.1-0.9c0.2-0.7,0.5-1.1,1-1.4c0,0,0,0,0.1-0.1c0,0,0.1,0,0.1-0.1
				c0.7-0.4,1.5-0.6,2.3-0.6c0.6,0,1.1,0.1,1.5,0.3c0.9,0.4,1.5,1.2,1.9,2.3C76.3,47,76,47.2,75.5,47.4z M74.1,50.9
				c-0.2-0.3-0.8-0.5-1.6-0.6c-1.2-0.2-2-0.5-2.5-0.9c0,0,0,0,0-0.1c0,0,0-0.1,0-0.1c0,0,0,0,0,0h0c0.3,0.4,0.9,0.6,2,0.7
				c1.1,0.1,1.7,0.4,2.1,0.7c0.2,0.2,0.3,0.4,0.2,0.5C74.3,51.1,74.2,51,74.1,50.9z M72.3,46.5c-0.3,0.2-0.5,0.4-0.5,0.7
				c0,0.3,0,0.5,0.2,0.7c0,0,0,0.1-0.1,0.1c0,0-0.1,0-0.2,0c0-0.1-0.1-0.2-0.1-0.2c0-0.1,0-0.2,0-0.3c0-0.2,0-0.3,0-0.4
				c0-0.2,0.2-0.4,0.4-0.6c0.2-0.2,0.4-0.3,0.6-0.4c0.1,0,0.2-0.1,0.3-0.1c0.2,0,0.3,0,0.3,0.2C72.8,46.3,72.5,46.4,72.3,46.5z
				 M72.6,54.4c0,0,0.1,0,0.1,0c0.1,0,0.1,0,0.1,0c1.1,0,1.9-0.3,2.4-0.7c0.6-0.5,1-1.2,1.2-2c0,0,0-0.2,0-0.4c0-0.2,0-0.3-0.1-0.4
				v0c0.1,0,0.2,0,0.2,0.1c0,0.1,0,0.2,0,0.4c0,0.4-0.2,0.9-0.5,1.4c0,0-0.1,0.1-0.1,0.2c0,0.1-0.1,0.2-0.1,0.2c0,0,0,0-0.1,0
				c0,0-0.1,0-0.1,0.1c0,0,0,0.1-0.1,0.1c0,0,0,0.1,0,0.1c-0.3,0.3-0.8,0.6-1.4,0.8c-0.7,0.2-1.3,0.3-1.8,0.2c-0.1,0-0.2,0-0.2-0.1
				C72.5,54.4,72.5,54.3,72.6,54.4z M76.3,47.3c0,0,0,0-0.1,0.1c-0.1,0-0.1,0-0.1,0c-0.1,0-0.3,0.2-0.8,0.4
				c-0.3,0.2-0.6,0.3-0.8,0.4c0,0,0,0-0.1,0c0-0.1,0.1-0.2,0.2-0.2c0.1-0.1,0.4-0.2,0.7-0.4c0.3-0.2,0.5-0.3,0.7-0.4l0,0
				c0,0,0,0,0,0C76.2,47.2,76.3,47.2,76.3,47.3C76.3,47.3,76.3,47.3,76.3,47.3z"/>
			<path fill="#931B37" d="M79.7,54.2h-1.6c-0.4,0-0.7,0-0.8,0c0,0,0-0.1,0.1-0.2c0.1-0.1,0.1-0.1,0.1-0.2c0.2-0.2,0.4-0.4,0.4-0.8
				c0,0,0-0.3,0-1.1c0-0.4,0-1.6,0-3.7c0-0.1,0-0.4,0-0.8c0-0.4,0-0.7,0-0.9c0-0.7-0.1-1.3-0.2-1.7c0-0.1-0.1-0.2-0.3-0.4
				c0-0.1,0.1-0.1,0.3-0.1c0,0,0.1,0,0.2,0c0.1,0,0.1,0,0.2,0h2c0.1,0,0.2,0,0.2,0c0.1,0,0.1,0,0.1,0.1c0,0-0.1,0.1-0.2,0.3
				c-0.2,0.3-0.3,1.2-0.3,2.7c0,0.3,0,0.9,0,1.8c0,0.8,0,1.5,0,1.9c0,0.1,0,0.3,0,0.7c0,0.3,0,0.5,0,0.7c0,0.5,0.1,0.8,0.3,1.1
				c0,0,0.1,0.1,0.1,0.2c0.1,0.1,0.1,0.2,0.1,0.2C80.4,54.2,80.1,54.2,79.7,54.2z M81,54.4c0,0.1,0,0.1,0,0.2c0.1,0-0.9,0-2.9,0
				c0,0,0,0-0.1,0c0,0-0.1,0-0.1,0c-0.1,0-0.1,0-0.1-0.1c0-0.1,0.1-0.1,0.2-0.1c0,0,0.1,0,0.2,0c0.1,0,0.1,0,0.1,0
				c0.2,0,0.7,0,1.3,0c0.5,0,1,0,1.3,0c0-0.1-0.1-0.3-0.3-0.5c-0.2-0.2-0.3-0.4-0.3-0.5c-0.1-0.3-0.2-0.7-0.2-1.3c0,0,0,0,0,0
				c0,0,0,0,0-0.1c0-0.2,0-0.8,0-2c0-0.9,0-1.6,0.1-2.1c0.1-1.4,0.1-2.1,0.1-2.1c0.1-0.4,0.1-0.7,0.3-0.8c0.1,0,0.2,0,0.1,0.1
				c0,0,0,0.1-0.1,0.2c0,0.1-0.1,0.1-0.1,0.1c-0.1,0.3-0.2,0.8-0.2,1.6c-0.1,3-0.1,4.8-0.1,5.5c0,0.8,0.3,1.5,0.8,1.9
				C81,54.2,81,54.3,81,54.4z"/>
			<path fill="#931B37" d="M88.1,44.7c0.7,0.2,1.3,0.6,2,1.4c1.1,1.2,1.4,2.5,1.2,4c-0.1,0.4-0.3,0.9-0.6,1.5
				c-0.5,1.1-1.4,1.9-2.6,2.3c-0.5,0.2-1,0.3-1.5,0.3c-0.8,0-1.5-0.2-2.3-0.5c-0.7-0.3-1.3-0.7-1.7-1.3c-0.5-0.5-0.8-1-1-1.5
				c-0.2-0.6-0.3-1.3-0.2-2c0.1-0.7,0.3-1.3,0.6-1.8c0.3-0.5,0.6-0.9,1-1.3c0.8-0.8,1.8-1.2,3.2-1.3C86.7,44.4,87.3,44.5,88.1,44.7z
				 M89,48.3c-0.2-0.6-0.6-1.1-1.1-1.5c-0.6-0.4-1.2-0.6-1.9-0.5c-0.6,0.1-1.2,0.4-1.7,0.9c-0.5,0.5-0.8,1.1-0.9,1.7
				c-0.1,0.6,0,1.3,0.4,2.1c0.9,1,1.8,1.5,2.5,1.5c0.7,0,1.2-0.2,1.8-0.7c0.5-0.5,0.9-1,1-1.7c0-0.1,0-0.4,0-0.8
				c0-0.3,0-0.6-0.1-0.8C89.1,48.5,89.1,48.4,89,48.3z M86.5,46.6c-0.2,0-0.4,0-0.5,0c-0.4,0.1-0.8,0.3-1.2,0.5
				c-0.4,0.3-0.7,0.6-0.9,1.1c-0.2,0.5-0.3,1-0.2,1.6c0,0.2,0.2,0.6,0.5,1.3c-0.1,0-0.3-0.1-0.5-0.5c-0.1-0.3-0.2-0.6-0.3-0.8
				c-0.1-0.6,0-1.1,0.2-1.6c0.2-0.4,0.6-0.8,1.1-1.2c0.5-0.4,1.1-0.5,1.7-0.6c0.3,0,0.4,0,0.5,0.1C86.9,46.5,86.7,46.6,86.5,46.6z
				 M85.7,54.3c0,0,0.1,0,0.2,0c0.1,0,0.2,0,0.2,0c1.5,0.1,2.8-0.3,3.9-1.4c1-1.1,1.5-2.3,1.5-3.9c0-0.5-0.1-0.9-0.2-1.3
				c-0.2-0.5-0.4-0.8-0.6-1.1c0,0,0,0,0,0c0,0,0,0,0,0c0.1,0,0.1,0,0.1,0c0.3,0.3,0.5,0.7,0.7,1.3s0.2,1.1,0.2,1.7
				c-0.1,1.6-0.7,2.9-1.9,3.9c-1.2,1-2.7,1.3-4.3,1C85.5,54.3,85.6,54.3,85.7,54.3z"/>
			<path fill="#931B37" d="M97.5,48.5c0.1-1.1,0.1-1.9,0-2.3c-0.1-0.7-0.2-1.1-0.3-1.3c-0.2-0.3-0.4-0.4-0.4-0.4
				c0-0.1,0.2-0.1,0.6-0.1c0.1,0,0.3,0,0.5,0c0.2,0,0.3,0,0.3,0c0.2,0,0.5,0,0.9,0c0.4,0,0.7,0,0.8,0c0,0-0.1,0.2-0.3,0.4
				c-0.1,0.3-0.2,0.9-0.2,1.9c0,0.7,0,1.5,0,2.4c0,1.1,0,1.9,0,2.4c0,1.1,0,1.8,0.1,2.1c0.1,0.4,0.2,0.5,0.3,0.5c0,0-0.3,0-0.7,0
				c-1.1,0-1.6,0-1.6,0c0,0-0.2-0.5-0.6-1.6c-0.2-0.6-0.6-1.4-1-2.4c-0.5-1.2-0.9-2-1.1-2.4c-0.1,2-0.1,3.6-0.1,4.9
				c0,0.5,0.1,1,0.4,1.3c0,0,0,0,0.1,0.1c0,0,0.1,0,0.1,0.1c0,0.1,0.1,0.1,0,0.2c0,0,0,0.1-0.1,0.1c-0.1,0-0.1,0-0.1,0
				c-0.1,0-0.5,0-0.9,0c-0.5,0-0.9,0-1.1,0c-0.6,0-0.9,0-0.9,0c0.3-0.5,0.5-0.8,0.5-0.8c0.1-0.2,0.1-0.9,0-1.9c0-0.3,0-1.1,0-2.3
				c0-0.3,0-1,0-2.2c0-0.6,0-1,0-1.1c0-0.4-0.1-0.7-0.3-0.9c-0.2-0.2-0.3-0.3-0.3-0.3c0-0.1,0.1-0.1,0.2-0.1c0.1,0,0.2,0,0.3,0
				c0,0,0.5,0,1.6,0.1l0.5,0c0,0,0.2,0.3,0.4,0.8c0.3,0.6,0.7,1.6,1.2,2.8c0.5,1.3,0.9,2.2,1.2,2.8C97.5,49.6,97.5,48.8,97.5,48.5z
				 M95.1,48.9c0,0,0,0,0,0.2c0,0.1,0,0.3,0,0.6c0,0.3,0,0.5,0,0.6c0,1,0,1.9,0.1,2.6c0.1,0.5,0.2,0.8,0.5,1.1c0,0,0.1,0.1,0.1,0.1
				c0.1,0,0.1,0.1,0.1,0.1c0,0,0,0,0,0c0,0,0,0,0,0c0,0,0,0,0,0c0,0,0,0,0,0c0,0,0,0.1,0,0.1c0,0.1-0.1,0.1-0.2,0.1c0,0-0.1,0-0.2,0
				c-0.1,0-0.2,0-0.2,0c-0.3,0-1.1,0-2.3,0c0,0-0.1,0-0.1,0c-0.1,0-0.1,0-0.1,0c-0.1,0-0.1,0-0.2-0.1c0-0.1,0.1-0.1,0.2-0.1
				c0,0,0.1,0,0.2,0c0.1,0,0.1,0,0.2,0c0.2,0,0.6,0,1.2,0c0.6,0,1,0,1.2,0c0,0-0.1-0.1-0.2-0.3c-0.1-0.2-0.2-0.3-0.3-0.3
				c-0.2-0.5-0.3-1.2-0.3-2.3c0-1.6,0.1-2.5,0.1-2.6c0,0,0-0.1,0.1-0.1C95,48.8,95.1,48.8,95.1,48.9z M97.2,49.9
				C97.2,49.9,97.2,49.9,97.2,49.9c0-0.1,0-0.2,0-0.2c0,0-0.3-0.8-1-2.3c-0.2-0.6-0.4-1-0.6-1.3c-0.2-0.5-0.4-1-0.5-1.3c0,0,0,0,0,0
				c0,0,0,0,0,0c0,0,0,0,0,0c0,0,0,0,0,0c0.1,0,0.1,0.1,0.2,0.3c0,0,0,0.1,0.1,0.2c0,0.1,0.1,0.1,0.1,0.2c0.1,0.1,0.2,0.4,0.4,0.8
				c0.2,0.3,0.3,0.6,0.4,0.8c0.4,1.1,0.7,1.9,1,2.5c0,0,0,0.1,0,0.1c0,0,0.1,0.1,0.1,0.1c0,0.1,0,0.2,0,0.2
				C97.3,50,97.2,50,97.2,49.9z M100.2,45c-0.1,0.1-0.1,0.2-0.1,0.1c-0.1,0.3-0.2,0.8-0.2,1.7c0,0.2,0,0.4,0,0.8c0,0.4,0,0.7,0,0.8
				c0,1-0.1,2.2-0.1,3.8c0,0.3,0,0.7,0.1,1.4c0,0.1,0.1,0.3,0.2,0.5c0.1,0.2,0.2,0.4,0.2,0.5c-0.3,0.1-0.7,0.1-1.2,0.1
				c-0.8,0-1.2-0.1-1.3-0.1c0-0.1,0-0.2,0.1-0.2c0,0,0.1,0,0.1,0c0.1,0,0.1,0,0.1,0c0.2,0,0.5,0,0.9,0c0.5,0,0.8,0,1,0
				c-0.3-0.3-0.5-0.9-0.5-1.7c0-0.1,0-0.4,0-0.6c0-0.3,0-0.5,0-0.6c0-0.7,0-2.2,0.1-4.6c0-1,0.1-1.6,0.4-2c0-0.1,0.1-0.1,0.2-0.1
				C100.3,44.8,100.3,44.9,100.2,45z"/>
		</g>
		<g>
			<path fill="#931B37" d="M86.6,42.8l1.5-2.9l1.8,1.5l-2.6,2L86.6,42.8z"/>
			<g>
				<polygon fill="#931B37" points="90.5,41.3 88.6,39.7 88.5,39.9 90.2,41.3 88,43 88.1,43.1 				"/>
			</g>
		</g>
	</g>
</g>
</svg>
