<?xml version="1.0" encoding="utf-8"?><!-- Generator: Adobe Illustrator 18.1.1, SVG Export Plug-In . SVG Version: 6.00 Build 0)  -->
<svg version="1.1" id="Capa_1" xmlns="http://www.w3.org/2000/svg" xmlns:xlink="http://www.w3.org/1999/xlink" x="0px" y="0px"
	 viewBox="0 0 100 100" enable-background="new 0 0 100 100" xml:space="preserve">
<g>
	<path fill="#008080" d="M95.7,8.3L37,83.5l-3.6,4.6l-5.5-3.9L8,70.2l10.5-13L32,69.9L95.7,8.3 M91.9,4.4L32,62.3l-9.7-9.1l-4.3-4
		l-3.7,4.6l-10.5,13L0,71.3l4.8,3.4l19.9,14l5.5,3.9l4.3,3l3.2-4.1l3.6-4.6L100,11.7L91.9,4.4L91.9,4.4z"/>
</g>
</svg>
